﻿


EVENT   1
 PAGE   1
  281(1)
  250(bytes(0x04,0x08,0x6f,0x3a,0x0c,0x52,0x50,0x47,0x3a,0x3a,0x53,0x45,0x08,0x3a,0x0a,0x40,0x6e,0x61,0x6d,0x65,0x49,0x22,0x09,0x4d,0x6f,0x76,0x65,0x06,0x3a,0x06,0x45,0x54,0x3a,0x0b,0x40,0x70,0x69,0x74,0x63,0x68,0x69,0x69,0x3a,0x0c,0x40,0x76,0x6f,0x6c,0x75,0x6d,0x65,0x69,0x55))
  TeleportPlayer(0,719,35,45,0,0)
  0()



EVENT   2
 PAGE   1
  281(1)
  250(bytes(0x04,0x08,0x6f,0x3a,0x0c,0x52,0x50,0x47,0x3a,0x3a,0x53,0x45,0x08,0x3a,0x0a,0x40,0x6e,0x61,0x6d,0x65,0x49,0x22,0x09,0x4d,0x6f,0x76,0x65,0x06,0x3a,0x06,0x45,0x54,0x3a,0x0b,0x40,0x70,0x69,0x74,0x63,0x68,0x69,0x69,0x3a,0x0c,0x40,0x76,0x6f,0x6c,0x75,0x6d,0x65,0x69,0x55))
  TeleportPlayer(0,719,6,39,0,0)
  0()



EVENT   3
 PAGE   1
  0()



EVENT   4
 PAGE   1
  0()



EVENT   5
 PAGE   1
  281(1)
  250(bytes(0x04,0x08,0x6f,0x3a,0x0c,0x52,0x50,0x47,0x3a,0x3a,0x53,0x45,0x08,0x3a,0x0a,0x40,0x6e,0x61,0x6d,0x65,0x49,0x22,0x09,0x4d,0x6f,0x76,0x65,0x06,0x3a,0x06,0x45,0x54,0x3a,0x0b,0x40,0x70,0x69,0x74,0x63,0x68,0x69,0x69,0x3a,0x0c,0x40,0x76,0x6f,0x6c,0x75,0x6d,0x65,0x69,0x55))
  TeleportPlayer(0,719,30,30,0,0)
  0()



EVENT   6
 PAGE   1
  281(1)
  250(bytes(0x04,0x08,0x6f,0x3a,0x0c,0x52,0x50,0x47,0x3a,0x3a,0x53,0x45,0x08,0x3a,0x0a,0x40,0x6e,0x61,0x6d,0x65,0x49,0x22,0x09,0x4d,0x6f,0x76,0x65,0x06,0x3a,0x06,0x45,0x54,0x3a,0x0b,0x40,0x70,0x69,0x74,0x63,0x68,0x69,0x69,0x3a,0x0c,0x40,0x76,0x6f,0x6c,0x75,0x6d,0x65,0x69,0x55))
  TeleportPlayer(0,719,30,30,0,0)
  0()



EVENT   7
 PAGE   1
  281(1)
  250(bytes(0x04,0x08,0x6f,0x3a,0x0c,0x52,0x50,0x47,0x3a,0x3a,0x53,0x45,0x08,0x3a,0x0a,0x40,0x6e,0x61,0x6d,0x65,0x49,0x22,0x09,0x4d,0x6f,0x76,0x65,0x06,0x3a,0x06,0x45,0x54,0x3a,0x0b,0x40,0x70,0x69,0x74,0x63,0x68,0x69,0x69,0x3a,0x0c,0x40,0x76,0x6f,0x6c,0x75,0x6d,0x65,0x69,0x55))
  TeleportPlayer(0,719,30,30,0,0)
  0()



EVENT   8
 PAGE   1
  250(bytes(0x04,0x08,0x6f,0x3a,0x0c,0x52,0x50,0x47,0x3a,0x3a,0x53,0x45,0x08,0x3a,0x0a,0x40,0x6e,0x61,0x6d,0x65,0x49,0x22,0x09,0x4d,0x6f,0x76,0x65,0x06,0x3a,0x06,0x45,0x54,0x3a,0x0b,0x40,0x70,0x69,0x74,0x63,0x68,0x69,0x69,0x3a,0x0c,0x40,0x76,0x6f,0x6c,0x75,0x6d,0x65,0x69,0x55))
  TeleportPlayer(0,720,66,49,8,0)
  0()



EVENT   9
 PAGE   1
  250(bytes(0x04,0x08,0x6f,0x3a,0x0c,0x52,0x50,0x47,0x3a,0x3a,0x53,0x45,0x08,0x3a,0x0a,0x40,0x6e,0x61,0x6d,0x65,0x49,0x22,0x09,0x4d,0x6f,0x76,0x65,0x06,0x3a,0x06,0x45,0x54,0x3a,0x0b,0x40,0x70,0x69,0x74,0x63,0x68,0x69,0x69,0x3a,0x0c,0x40,0x76,0x6f,0x6c,0x75,0x6d,0x65,0x69,0x55))
  TeleportPlayer(0,720,66,49,8,0)
  0()



EVENT   10
 PAGE   1
  250(bytes(0x04,0x08,0x6f,0x3a,0x0c,0x52,0x50,0x47,0x3a,0x3a,0x53,0x45,0x08,0x3a,0x0a,0x40,0x6e,0x61,0x6d,0x65,0x49,0x22,0x09,0x4d,0x6f,0x76,0x65,0x06,0x3a,0x06,0x45,0x54,0x3a,0x0b,0x40,0x70,0x69,0x74,0x63,0x68,0x69,0x69,0x3a,0x0c,0x40,0x76,0x6f,0x6c,0x75,0x6d,0x65,0x69,0x55))
  TeleportPlayer(0,720,66,19,2,0)
  0()



EVENT   11
 PAGE   1
  250(bytes(0x04,0x08,0x6f,0x3a,0x0c,0x52,0x50,0x47,0x3a,0x3a,0x53,0x45,0x08,0x3a,0x0a,0x40,0x6e,0x61,0x6d,0x65,0x49,0x22,0x09,0x4d,0x6f,0x76,0x65,0x06,0x3a,0x06,0x45,0x54,0x3a,0x0b,0x40,0x70,0x69,0x74,0x63,0x68,0x69,0x69,0x3a,0x0c,0x40,0x76,0x6f,0x6c,0x75,0x6d,0x65,0x69,0x55))
  TeleportPlayer(0,720,66,19,2,0)
  0()



EVENT   12
 PAGE   1
  250(bytes(0x04,0x08,0x6f,0x3a,0x0c,0x52,0x50,0x47,0x3a,0x3a,0x53,0x45,0x08,0x3a,0x0a,0x40,0x6e,0x61,0x6d,0x65,0x49,0x22,0x09,0x4d,0x6f,0x76,0x65,0x06,0x3a,0x06,0x45,0x54,0x3a,0x0b,0x40,0x70,0x69,0x74,0x63,0x68,0x69,0x69,0x3a,0x0c,0x40,0x76,0x6f,0x6c,0x75,0x6d,0x65,0x69,0x55))
  TeleportPlayer(0,720,20,44,0,0)
  0()



EVENT   13
 PAGE   1
  250(bytes(0x04,0x08,0x6f,0x3a,0x0c,0x52,0x50,0x47,0x3a,0x3a,0x53,0x45,0x08,0x3a,0x0a,0x40,0x6e,0x61,0x6d,0x65,0x49,0x22,0x09,0x4d,0x6f,0x76,0x65,0x06,0x3a,0x06,0x45,0x54,0x3a,0x0b,0x40,0x70,0x69,0x74,0x63,0x68,0x69,0x69,0x3a,0x0c,0x40,0x76,0x6f,0x6c,0x75,0x6d,0x65,0x69,0x55))
  TeleportPlayer(0,720,20,44,0,0)
  0()



EVENT   14
 PAGE   1
  250(bytes(0x04,0x08,0x6f,0x3a,0x0c,0x52,0x50,0x47,0x3a,0x3a,0x53,0x45,0x08,0x3a,0x0a,0x40,0x6e,0x61,0x6d,0x65,0x49,0x22,0x09,0x4d,0x6f,0x76,0x65,0x06,0x3a,0x06,0x45,0x54,0x3a,0x0b,0x40,0x70,0x69,0x74,0x63,0x68,0x69,0x69,0x3a,0x0c,0x40,0x76,0x6f,0x6c,0x75,0x6d,0x65,0x69,0x55))
  TeleportPlayer(0,720,66,14,8,0)
  0()



EVENT   15
 PAGE   1
  PictureDisplay(5,"80_minccubus_st03",0,0,-150,0,100,100,0,0)
  PictureDisplay(6,"80_renccubus_st01",0,0,150,0,100,100,0,0)
  PictureMove(5,null,0,0,-150,0,100,100,255,0,30,false)
  PictureMove(6,null,0,0,150,0,100,100,255,0,30,true)
  ShowMessageFace("minccubus_fc1",3,0,2,1)
  ShowMessage("【ミンキュバス】")
  ShowMessage("あの勇者達だよ、あの人達にいじめられたの～！")
  ShowMessageFace("renccubus_fc1",1,0,2,2)
  ShowMessage("【レンキュバス】")
  ShowMessage("私の妹をいじめるなんて、ひどい人達……")
  ShowMessage("お返しに、たっぷりいじめ返してあげますね。")
  ShowMessageFace("renccubus_fc1",1,0,2,3)
  ShowMessage("【レンキュバス】")
  ShowMessage("今の私、とっても強いですよ。")
  ShowMessage("ここの人達の力、全部吸い取っちゃったから……♪")
  If(4,226,0)
   ShowMessageFace("sirohebisama_fc1",0,0,2,4)
   ShowMessage("【白蛇様】")
   ShowMessage("こやつも理性を失っているようだな……")
   0()
  EndIf()
  ShowMessageFace("ruka_fc1",0,0,2,5)
  ShowMessage("【ルカ】")
  ShowMessage("これ以上、そんな事はさせない！")
  ShowMessage("正気に戻るんだ！")
  PictureDisplay(6,"80_renccubus_st04",0,0,150,0,100,100,255,0)
  ShowMessageFace("renccubus_fc1",3,0,2,6)
  ShowMessage("【レンキュバス】")
  ShowMessage("あなたの力も、搾り尽くしてあげますね……♪")
  ShowMessage("私に吸われるのは、とっても気持ちいいんですから……")
  PictureDisplay(5,"80_minccubus_st01",0,0,-150,0,100,100,255,0)
  ShowMessageFace("minccubus_fc1",1,0,2,7)
  ShowMessage("【ミンキュバス】")
  ShowMessage("あたしだって、手伝うから～！")
  If(0,4,0)
   ShowMessageFace("alice_fc5",2,0,2,8)
   ShowMessage("【アリス】")
   ShowMessage("元は人間とは言え、遠慮はするな！")
   ShowMessage("手を抜けば、こちらがやられるぞ！")
   0()
  EndIf()
  If(0,5,0)
   ShowMessageFace("iriasu_fc4",1,0,2,9)
   ShowMessage("【イリアス】")
   ShowMessage("正気に戻さねばなりません！")
   ShowMessage("頭を重点的に殴るのです！")
   0()
  EndIf()
  If(4,129,0)
   ShowMessageFace("brunhild_fc1",0,0,2,10)
   ShowMessage("【ヒルデ】")
   ShowMessage("オシオキ開始……対象、淫魔。")
   0()
  EndIf()
  PictureClear(5)
  PictureClear(6)
  ChangeSwitch(22,22,0)
  Battle(0,740,false,false)
  ChangeSwitch(22,22,1)
  ChangeSwitch(2207,2207,0)
  PictureDisplay(5,"80_minccubus_st03",0,0,-150,0,100,100,0,0)
  PictureDisplay(6,"80_renccubus_st03",0,0,150,0,100,100,0,0)
  PictureMove(5,null,0,0,-150,0,100,100,255,0,30,false)
  PictureMove(6,null,0,0,150,0,100,100,255,0,30,true)
  ShowMessageFace("renccubus_fc1",4,0,2,11)
  ShowMessage("【レンキュバス】")
  ShowMessage("あれ……？　私は、いったい何を……？")
  ShowMessageFace("minccubus_fc1",3,0,2,12)
  ShowMessage("【ミンキュバス】")
  ShowMessage("お姉ちゃん！　あたし、どうしちゃったの～？")
  If(0,4,0)
   ShowMessageFace("alice_fc5",0,0,2,13)
   ShowMessage("【アリス】")
   ShowMessage("むっ……正気に戻ったか。")
   ShowMessage("ここまでサキュバスの力に順応している以上、心配はいらんだろう。")
   0()
  EndIf()
  If(0,5,0)
   ShowMessageFace("iriasu_fc4",2,0,2,14)
   ShowMessage("【イリアス】")
   ShowMessage("ちっ、正気に戻りましたか……")
   ShowMessage("はい、もう殴るのやめやめ。")
   0()
  EndIf()
  If(0,6,0)
   ShowMessageFace("sonia_fc1",5,0,2,15)
   ShowMessage("【ソニア】")
   ShowMessage("しばらく、この家を出ちゃダメよ。いいわね？")
   0()
  Else()
   ShowMessageFace("ruka_fc1",0,0,2,16)
   ShowMessage("【ルカ】")
   ShowMessage("しばらく、この家に隠れているんだよ。")
   0()
  EndIf()
  ShowMessageFace("renccubus_fc1",4,0,2,17)
  ShowMessage("【レンキュバス】")
  ShowMessage("なんだか分からないけど……妹は、私が守らないと！")
  ShowMessageFace("minccubus_fc1",3,0,2,18)
  ShowMessage("【ミンキュバス】")
  ShowMessage("おねぇちゃ～ん！")
  If(4,84,0)
   ShowMessageFace("hapy_bc_fc1",0,0,2,19)
   ShowMessage("【ピナ＆ピィ】")
   ShowMessage("この二人も、仲良し姉妹なんだね♪")
   0()
  EndIf()
  PictureClear(5)
  PictureClear(6)
  0()
 PAGE   2
  // condition: switch 2207 is ON
  PictureDisplay(5,"80_minccubus_st03",0,0,-150,0,100,100,0,0)
  PictureDisplay(6,"80_renccubus_st03",0,0,150,0,100,100,0,0)
  PictureMove(5,null,0,0,-150,0,100,100,255,0,30,false)
  PictureMove(6,null,0,0,150,0,100,100,255,0,30,true)
  ShowMessageFace("renccubus_fc1",4,0,2,1)
  ShowMessage("【レンキュバス】")
  ShowMessage("村長様は、どうされてるんでしょう……？")
  ShowMessage("男の人を渡す渡さないで、この騒ぎが始まったみたいなんですけど……")
  ShowMessageFace("minccubus_fc1",3,0,2,2)
  ShowMessage("【ミンキュバス】")
  ShowMessage("そうだ、お姉ちゃん！")
  ShowMessage("騒ぎのドサクサに紛れて、イモ焼き払っちゃおう！")
  355("actor_label_jump")
  PictureClear(5)
  PictureClear(6)
  EndEventProcessing()
  DefineLabel("143")
  ShowMessageFace("eva_fc1",0,0,2,3)
  ShowMessage("【エヴァ】")
  ShowMessage("イモを焼くなら、手伝ってあげてもいいわよ。")
  ShowMessageFace("renccubus_fc1",4,0,2,4)
  ShowMessage("【レンキュバス】")
  ShowMessage("あ……あなたは、まさか……")
  PictureClear(5)
  PictureClear(6)
  EndEventProcessing()
  0()



EVENT   16
 PAGE   1
  If(0,2207,1)
   PictureDisplay(5,"80_minccubus_st03",0,0,0,0,100,100,255,0)
   ShowMessageFace("minccubus_fc1",3,0,2,1)
   ShowMessage("【ミンキュバス】")
   ShowMessage("わわっ、追いかけてきたぁ！")
   PictureClear(5)
   0()
  Else()
   PictureDisplay(5,"80_minccubus_st03",0,0,-150,0,100,100,0,0)
   PictureDisplay(6,"80_renccubus_st03",0,0,150,0,100,100,0,0)
   PictureMove(5,null,0,0,-150,0,100,100,255,0,30,false)
   PictureMove(6,null,0,0,150,0,100,100,255,0,30,true)
   ShowMessageFace("minccubus_fc1",3,0,2,2)
   ShowMessage("【ミンキュバス】")
   ShowMessage("おねえちゃ～ん！")
   ShowMessage("この男の人たち、なんで倒れてるの？　こわいよ～！")
   ShowMessageFace("renccubus_fc1",4,0,2,3)
   ShowMessage("【レンキュバス】")
   ShowMessage("あっ、それは多分私が……")
   ShowMessage("大丈夫、怖くないし美味しかったよ。")
   PictureClear(5)
   PictureClear(6)
   0()
  EndIf()
  0()



EVENT   17
 PAGE   1
  ShowMessageFace("",0,0,2,1)
  ShowMessage("【ごろつき】")
  ShowMessage("はぅぅぅ……")
  0()



EVENT   18
 PAGE   1
  ShowMessageFace("",0,0,2,1)
  ShowMessage("【青年】")
  ShowMessage("す、吸い尽くされた……")
  0()



EVENT   19
 PAGE   1
  ShowMessageFace("",0,0,2,1)
  ShowMessage("【おじさん】")
  ShowMessage("ふぁぁぁ……")
  0()



EVENT   20
 PAGE   1
  ShowMessageFace("",0,0,2,1)
  ShowMessage("【青年】")
  ShowMessage("あぅぅぅぅ……")
  0()



EVENT   21
 PAGE   1
  ShowMessageFace("",0,0,2,1)
  ShowMessage("【少年】")
  ShowMessage("もう、だめぇ……")
  0()



EVENT   22
 PAGE   1
  PictureDisplay(5,"80_d_succubus_st01b",0,0,0,0,100,100,0,0)
  PictureMove(5,null,0,0,0,0,100,100,255,0,30,true)
  ShowMessageFace("d_succubus_fc1",0,0,2,1)
  ShowMessage("【ナターシャ】")
  ShowMessage("これ以上、邪魔をしないで下さい。")
  ShowMessage("それとも、私に味方して村長を倒してくれるのですか……？")
  If(0,2097,0)
   If(0,1163,0)
    ShowMessageFace("lily_fc1",0,0,2,2)
    ShowMessage("【リリィ】")
    ShowMessage("まずは、邪魔な村長を黙らせましょう。")
    ShowMessage("……大丈夫、私を信じて下さい。")
    0()
   EndIf()
   0()
  EndIf()
  PictureClear(5)
  ShowMessageFace("ruka_fc1",0,0,2,3)
  ShowMessage("【ルカ】")
  ShowMessage("……………………")
  ShowChoices(strings("ナターシャに味方しサキュバスと戦う","やめておく"),2)
  IfPlayerPicksChoice(0,null)
   205(-1,bytes(0x04,0x08,0x6f,0x3a,0x13,0x52,0x50,0x47,0x3a,0x3a,0x4d,0x6f,0x76,0x65,0x52,0x6f,0x75,0x74,0x65,0x09,0x3a,0x0c,0x40,0x72,0x65,0x70,0x65,0x61,0x74,0x46,0x3a,0x0f,0x40,0x73,0x6b,0x69,0x70,0x70,0x61,0x62,0x6c,0x65,0x46,0x3a,0x0a,0x40,0x77,0x61,0x69,0x74,0x54,0x3a,0x0a,0x40,0x6c,0x69,0x73,0x74,0x5b,0x07,0x6f,0x3a,0x15,0x52,0x50,0x47,0x3a,0x3a,0x4d,0x6f,0x76,0x65,0x43,0x6f,0x6d,0x6d,0x61,0x6e,0x64,0x07,0x3a,0x0a,0x40,0x63,0x6f,0x64,0x65,0x69,0x16,0x3a,0x10,0x40,0x70,0x61,0x72,0x61,0x6d,0x65,0x74,0x65,0x72,0x73,0x5b,0x00,0x6f,0x3b,0x0a,0x07,0x3b,0x0b,0x69,0x00,0x3b,0x0c,0x5b,0x00))
   ShowMessageFace("ruka_fc1",0,0,2,4)
   ShowMessage("【ルカ】")
   ShowMessage("分かった、ここはナターシャに手を貸そう！")
   ShowMessageFace("d_succubus_fc1",0,0,2,5)
   ShowMessage("【ナターシャ】")
   ShowMessage("へぇ、本当に味方してくれるのですね。")
   ShowMessage("それでは、村長の相手はあなた達に任せましょう。")
   PictureDisplay(5,"80_succubus_st03",0,0,0,0,100,100,0,0)
   PictureMove(5,null,0,0,0,0,100,100,255,0,30,true)
   ShowMessageFace("succubus_fc1",3,0,2,6)
   ShowMessage("【サキュバス】")
   ShowMessage("まさか、ここで敵に増援とは……")
   ShowMessage("しかし村の同胞を守るため、相手が誰でも戦い抜きます！")
   If(4,287,0)
    ShowMessageFace("succubus_fc1",3,0,2,7)
    ShowMessage("【サキュバス’】")
    ShowMessage("自分と戦うなんて、複雑ねぇ……")
    ShowMessageFace("succubus_fc1",3,0,2,8)
    ShowMessage("【サキュバス】")
    ShowMessage("これは、どういう事なのです？")
    ShowMessage("いいえ、惑わされはしません……！")
    0()
   EndIf()
   ShowMessageFace("ruka_fc1",0,0,2,9)
   ShowMessage("【ルカ】")
   ShowMessage("恨みはないけど……行くぞ！")
   If(4,129,0)
    ShowMessageFace("brunhild_fc1",0,0,2,10)
    ShowMessage("【ヒルデ】")
    ShowMessage("対象、敵淫魔……戦闘開始だよ。")
    0()
   EndIf()
   If(4,79,0)
    ShowMessageFace("nuruko_fc1",0,0,2,11)
    ShowMessage("【ヌルコ】")
    ShowMessage("きゅきゅー！")
    0()
   EndIf()
   PictureClear(5)
   SetBattleBGM(bytes(0x04,0x08,0x6f,0x3a,0x0d,0x52,0x50,0x47,0x3a,0x3a,0x42,0x47,0x4d,0x08,0x3a,0x0a,0x40,0x6e,0x61,0x6d,0x65,0x49,0x22,0x0a,0x62,0x6f,0x73,0x73,0x31,0x06,0x3a,0x06,0x45,0x54,0x3a,0x0c,0x40,0x76,0x6f,0x6c,0x75,0x6d,0x65,0x69,0x69,0x3a,0x0b,0x40,0x70,0x69,0x74,0x63,0x68,0x69,0x69))
   ChangeSwitch(22,22,0)
   283("DecorativeTile","Castle3")
   Battle(0,741,false,false)
   ChangeSwitch(22,22,1)
   SetBattleBGM(bytes(0x04,0x08,0x6f,0x3a,0x0d,0x52,0x50,0x47,0x3a,0x3a,0x42,0x47,0x4d,0x08,0x3a,0x0a,0x40,0x6e,0x61,0x6d,0x65,0x49,0x22,0x0b,0x62,0x61,0x74,0x74,0x6c,0x65,0x06,0x3a,0x06,0x45,0x54,0x3a,0x0c,0x40,0x76,0x6f,0x6c,0x75,0x6d,0x65,0x69,0x69,0x3a,0x0b,0x40,0x70,0x69,0x74,0x63,0x68,0x69,0x69))
   ChangeSwitch(1907,1907,0)
   314(0,0)
   281(1)
   TeleportPlayer(0,720,11,38,8,2)
   TeleportEvent(66,0,10,36,2)
   241(bytes(0x04,0x08,0x6f,0x3a,0x0d,0x52,0x50,0x47,0x3a,0x3a,0x42,0x47,0x4d,0x08,0x3a,0x0a,0x40,0x6e,0x61,0x6d,0x65,0x49,0x22,0x0a,0x6b,0x69,0x6b,0x69,0x32,0x06,0x3a,0x06,0x45,0x54,0x3a,0x0c,0x40,0x76,0x6f,0x6c,0x75,0x6d,0x65,0x69,0x69,0x3a,0x0b,0x40,0x70,0x69,0x74,0x63,0x68,0x69,0x69))
   PictureDisplay(5,"80_succubus_st03",0,0,0,0,100,100,0,0)
   PictureMove(5,null,0,0,0,0,100,100,255,0,30,true)
   ShowMessageFace("succubus_fc1",3,0,2,12)
   ShowMessage("【サキュバス】")
   ShowMessage("ううっ、こんな……")
   ShowMessage("あなた達は、私刑に手を貸そうというのですか……")
   PictureClear(5)
   Wait(60)
   205(0,bytes(0x04,0x08,0x6f,0x3a,0x13,0x52,0x50,0x47,0x3a,0x3a,0x4d,0x6f,0x76,0x65,0x52,0x6f,0x75,0x74,0x65,0x09,0x3a,0x0c,0x40,0x72,0x65,0x70,0x65,0x61,0x74,0x46,0x3a,0x0f,0x40,0x73,0x6b,0x69,0x70,0x70,0x61,0x62,0x6c,0x65,0x46,0x3a,0x0a,0x40,0x77,0x61,0x69,0x74,0x54,0x3a,0x0a,0x40,0x6c,0x69,0x73,0x74,0x5b,0x07,0x6f,0x3a,0x15,0x52,0x50,0x47,0x3a,0x3a,0x4d,0x6f,0x76,0x65,0x43,0x6f,0x6d,0x6d,0x61,0x6e,0x64,0x07,0x3a,0x0a,0x40,0x63,0x6f,0x64,0x65,0x69,0x07,0x3a,0x10,0x40,0x70,0x61,0x72,0x61,0x6d,0x65,0x74,0x65,0x72,0x73,0x5b,0x00,0x6f,0x3b,0x0a,0x07,0x3b,0x0b,0x69,0x00,0x3b,0x0c,0x5b,0x00))
   ShowMessageFace("d_succubus_fc1",0,0,2,13)
   ShowMessage("【ナターシャ】")
   ShowMessage("それでは、正当なる報復を果たしましょう……")
   ShowMessage("あなたには、快楽ではなく暴力による死を……！")
   ShowMessageFace("",0,0,2,14)
   ShowMessage("【男】")
   ShowMessage("ひぃぃぃっ……！！")
   ShowMessageFace("d_succubus_fc1",0,0,2,15)
   ShowMessage("【ナターシャ】")
   ShowMessage("これで私は、新たな自分に生まれ変われるのです……！")
   If(0,2097,0)
    If(0,1163,0)
     ShowMessageFace("lily_fc1",0,0,2,16)
     ShowMessage("【リリィ】")
     ShowMessage("いいえ、そんなものは生まれはしないわ。")
     ShowMessage("それで新たな一歩を踏み出せると思っているなら、大間違いよ。")
     205(0,bytes(0x04,0x08,0x6f,0x3a,0x13,0x52,0x50,0x47,0x3a,0x3a,0x4d,0x6f,0x76,0x65,0x52,0x6f,0x75,0x74,0x65,0x09,0x3a,0x0c,0x40,0x72,0x65,0x70,0x65,0x61,0x74,0x46,0x3a,0x0f,0x40,0x73,0x6b,0x69,0x70,0x70,0x61,0x62,0x6c,0x65,0x46,0x3a,0x0a,0x40,0x77,0x61,0x69,0x74,0x54,0x3a,0x0a,0x40,0x6c,0x69,0x73,0x74,0x5b,0x07,0x6f,0x3a,0x15,0x52,0x50,0x47,0x3a,0x3a,0x4d,0x6f,0x76,0x65,0x43,0x6f,0x6d,0x6d,0x61,0x6e,0x64,0x07,0x3a,0x0a,0x40,0x63,0x6f,0x64,0x65,0x69,0x15,0x3a,0x10,0x40,0x70,0x61,0x72,0x61,0x6d,0x65,0x74,0x65,0x72,0x73,0x5b,0x00,0x6f,0x3b,0x0a,0x07,0x3b,0x0b,0x69,0x00,0x3b,0x0c,0x5b,0x00))
     PictureDisplay(5,"80_d_succubus_st03b",0,0,0,0,100,100,0,0)
     PictureMove(5,null,0,0,0,0,100,100,255,0,30,true)
     ShowMessageFace("d_succubus_fc1",2,0,2,17)
     ShowMessage("【ナターシャ】")
     ShowMessage("大間違い……？")
     ShowMessage("なぜ、あなたにそんな事が分かるのです！？")
     ShowMessageFace("lily_fc1",0,0,2,18)
     ShowMessage("【リリィ】")
     ShowMessage("経験者だから。")
     ShowMessageFace("d_succubus_fc1",2,0,2,19)
     ShowMessage("【ナターシャ】")
     ShowMessage("毎日のように虐待され、蹂躙され……")
     ShowMessage("食事も与えられず、泥水を啜った事があるとでも！？")
     ShowMessageFace("lily_fc1",0,0,2,20)
     ShowMessage("【リリィ】")
     ShowMessage("私は、ネズミや革靴を食べたけどね。")
     ShowMessage("踏み躙られた年月で言えば、私の方が長いわ。")
     ShowMessageFace("d_succubus_fc1",2,0,2,21)
     ShowMessage("【ナターシャ】")
     ShowMessage("ならば分かるでしょう、私の苦しみや怒りが！")
     241(bytes(0x04,0x08,0x6f,0x3a,0x0d,0x52,0x50,0x47,0x3a,0x3a,0x42,0x47,0x4d,0x08,0x3a,0x0a,0x40,0x6e,0x61,0x6d,0x65,0x49,0x22,0x13,0x73,0x63,0x65,0x6e,0x65,0x5f,0x6f,0x64,0x61,0x79,0x61,0x6b,0x61,0x32,0x06,0x3a,0x06,0x45,0x54,0x3a,0x0c,0x40,0x76,0x6f,0x6c,0x75,0x6d,0x65,0x69,0x69,0x3a,0x0b,0x40,0x70,0x69,0x74,0x63,0x68,0x69,0x69))
     ShowMessageFace("lily_fc1",0,0,2,22)
     ShowMessage("【リリィ】")
     ShowMessage("分かるからこそ、その感情の行き着く果ても見えるのよ。")
     ShowMessage("復讐を成し遂げたとして、その怒りや苦しみは消えないわ。")
     ShowMessageFace("lily_fc1",0,0,2,23)
     ShowMessage("【リリィ】")
     ShowMessage("むしろ憎悪の対象を失い、怒りは果てしなく暴走していくわ。")
     ShowMessage("そのまま狂気を孕み、自己や周囲の人間を破壊するまでに……")
     ShowMessageFace("ruka_fc1",0,0,2,24)
     ShowMessage("【ルカ】")
     ShowMessage("リリィ……")
     ShowMessageFace("d_succubus_fc1",2,0,2,25)
     ShowMessage("【ナターシャ】")
     ShowMessage("でも、私は許せないのです！")
     ShowMessage("何も出来なかった私を、この男は――")
     ShowMessageFace("lily_fc1",0,0,2,26)
     ShowMessage("【リリィ】")
     ShowMessage("あなたが本当に憎悪しているのは、この男なの？")
     ShowMessage("それとも、何も抵抗できなかった自分？")
     ShowMessageFace("d_succubus_fc1",2,0,2,27)
     ShowMessage("【ナターシャ】")
     ShowMessage("それは――")
     ShowMessageFace("lily_fc1",0,0,2,28)
     ShowMessage("【リリィ】")
     ShowMessage("対象を履き違えた憎悪は、際限なく暴走するわ。")
     ShowMessage("そしてあなたは、平気で弱者を踏み躙るようになってしまう……")
     ShowMessageFace("d_succubus_fc1",2,0,2,29)
     ShowMessage("【ナターシャ】")
     ShowMessage("私は、そんな過ちなど――")
     ShowMessageFace("lily_fc1",0,0,2,30)
     ShowMessage("【リリィ】")
     ShowMessage("なら、あなたがこの村でやった事は何？")
     ShowMessage("倒れている者達は、あなたにとって紛れもなく弱者のはず……")
     ShowMessageFace("d_succubus_fc1",2,0,2,31)
     ShowMessage("【ナターシャ】")
     ShowMessage("でも！　でも――")
     ShowMessageFace("lily_fc1",0,0,2,32)
     ShowMessage("【リリィ】")
     ShowMessage("私とあなたは、同じ苦しみを知っているわ……")
     ShowMessage("だから、私達を虐げ、踏み躙った連中と同じ存在にならないで。")
     ShowMessageFace("lily_fc1",0,0,2,33)
     ShowMessage("【リリィ】")
     ShowMessage("あなた達がこの村を蹂躙した時、あなたを見上げた少女の目――")
     ShowMessage("それは、かつてのあなたと同じだったはずよ。")
     ShowMessageFace("d_succubus_fc1",2,0,2,34)
     ShowMessage("【ナターシャ】")
     ShowMessage("……………………")
     205(0,bytes(0x04,0x08,0x6f,0x3a,0x13,0x52,0x50,0x47,0x3a,0x3a,0x4d,0x6f,0x76,0x65,0x52,0x6f,0x75,0x74,0x65,0x09,0x3a,0x0c,0x40,0x72,0x65,0x70,0x65,0x61,0x74,0x46,0x3a,0x0f,0x40,0x73,0x6b,0x69,0x70,0x70,0x61,0x62,0x6c,0x65,0x46,0x3a,0x0a,0x40,0x77,0x61,0x69,0x74,0x54,0x3a,0x0a,0x40,0x6c,0x69,0x73,0x74,0x5b,0x07,0x6f,0x3a,0x15,0x52,0x50,0x47,0x3a,0x3a,0x4d,0x6f,0x76,0x65,0x43,0x6f,0x6d,0x6d,0x61,0x6e,0x64,0x07,0x3a,0x0a,0x40,0x63,0x6f,0x64,0x65,0x69,0x18,0x3a,0x10,0x40,0x70,0x61,0x72,0x61,0x6d,0x65,0x74,0x65,0x72,0x73,0x5b,0x00,0x6f,0x3b,0x0a,0x07,0x3b,0x0b,0x69,0x00,0x3b,0x0c,0x5b,0x00))
     241(bytes(0x04,0x08,0x6f,0x3a,0x0d,0x52,0x50,0x47,0x3a,0x3a,0x42,0x47,0x4d,0x08,0x3a,0x0a,0x40,0x6e,0x61,0x6d,0x65,0x49,0x22,0x14,0x73,0x63,0x65,0x6e,0x65,0x5f,0x65,0x70,0x69,0x6c,0x6f,0x67,0x75,0x65,0x32,0x06,0x3a,0x06,0x45,0x54,0x3a,0x0c,0x40,0x76,0x6f,0x6c,0x75,0x6d,0x65,0x69,0x69,0x3a,0x0b,0x40,0x70,0x69,0x74,0x63,0x68,0x69,0x69))
     PictureDisplay(5,"80_d_succubus_st01b",0,0,0,0,100,100,255,0)
     ShowMessageFace("d_succubus_fc1",0,0,2,35)
     ShowMessage("【ナターシャ】")
     ShowMessage("そうですね……")
     ShowMessage("なんだか、馬鹿馬鹿しくなってきました。")
     ShowMessageFace("d_succubus_fc1",0,0,2,36)
     ShowMessage("【ナターシャ】")
     ShowMessage("確かに、こんな男一人を殺そうが生かそうが……")
     ShowMessage("私の鬱屈した感情が、晴れる気はしません。")
     ShowMessageFace("",0,0,2,37)
     ShowMessage("【男】")
     ShowMessage("た、助かった……")
     ShowMessageFace("lily_fc1",0,0,2,38)
     ShowMessage("【リリィ】")
     ShowMessage("私が救おうとしたのは、この下衆男ではなく傷ついた少女。")
     ShowMessage("下衆男の方は、むしろ殺したいくらいなのを忘れないように。")
     ShowMessageFace("lily_fc1",0,0,2,39)
     ShowMessage("【リリィ】")
     ShowMessage("あんたの声を聞けば、つい私の手で殺したい衝動に駆られるわ。")
     ShowMessage("ここまでの流れが台無しだから、頼むから黙っていて。")
     ShowMessageFace("",0,0,2,40)
     ShowMessage("【男】")
     ShowMessage("……………………")
     If(0,4,0)
      ShowMessageFace("alice_fc5",2,0,2,41)
      ShowMessage("【アリス】")
      ShowMessage("さて、ナターシャよ。")
      ShowMessage("これから、どうするつもりなのだ……？")
      0()
     EndIf()
     If(0,5,0)
      ShowMessageFace("iriasu_fc4",2,0,2,42)
      ShowMessage("【イリアス】")
      ShowMessage("ナターシャ……これからどうするつもりです？")
      0()
     EndIf()
     ShowMessageFace("d_succubus_fc1",0,0,2,43)
     ShowMessage("【ナターシャ】")
     ShowMessage("さて……")
     ShowMessage("これからの事は、この男を殺してから考えるつもりだったので……")
     ShowMessageFace("lily_fc1",0,0,2,44)
     ShowMessage("【リリィ】")
     ShowMessage("予定がないなら、私達と一緒に来ない？")
     ShowMessage("ぶつけ所のない焦燥に、世界を救う使命感は良い薬になるわ。")
     ShowMessageFace("d_succubus_fc1",0,0,2,45)
     ShowMessage("【ナターシャ】")
     ShowMessage("そうですね……")
     ShowMessage("迷惑でないなら、ご厄介になりましょうか。")
     PictureClear(5)
     205(0,bytes(0x04,0x08,0x6f,0x3a,0x13,0x52,0x50,0x47,0x3a,0x3a,0x4d,0x6f,0x76,0x65,0x52,0x6f,0x75,0x74,0x65,0x09,0x3a,0x0c,0x40,0x72,0x65,0x70,0x65,0x61,0x74,0x46,0x3a,0x0f,0x40,0x73,0x6b,0x69,0x70,0x70,0x61,0x62,0x6c,0x65,0x46,0x3a,0x0a,0x40,0x77,0x61,0x69,0x74,0x54,0x3a,0x0a,0x40,0x6c,0x69,0x73,0x74,0x5b,0x09,0x6f,0x3a,0x15,0x52,0x50,0x47,0x3a,0x3a,0x4d,0x6f,0x76,0x65,0x43,0x6f,0x6d,0x6d,0x61,0x6e,0x64,0x07,0x3a,0x0a,0x40,0x63,0x6f,0x64,0x65,0x69,0x2a,0x3a,0x10,0x40,0x70,0x61,0x72,0x61,0x6d,0x65,0x74,0x65,0x72,0x73,0x5b,0x00,0x6f,0x3b,0x0a,0x07,0x3b,0x0b,0x69,0x0f,0x3b,0x0c,0x5b,0x00,0x6f,0x3b,0x0a,0x07,0x3b,0x0b,0x69,0x2c,0x3b,0x0c,0x5b,0x00,0x6f,0x3b,0x0a,0x07,0x3b,0x0b,0x69,0x00,0x3b,0x0c,0x5b,0x00))
     355("add_actor_ex(288)")
     249(bytes(0x04,0x08,0x6f,0x3a,0x0c,0x52,0x50,0x47,0x3a,0x3a,0x4d,0x45,0x08,0x3a,0x0a,0x40,0x6e,0x61,0x6d,0x65,0x49,0x22,0x0c,0x66,0x61,0x6e,0x66,0x61,0x6c,0x65,0x06,0x3a,0x06,0x45,0x54,0x3a,0x0b,0x40,0x70,0x69,0x74,0x63,0x68,0x69,0x69,0x3a,0x0c,0x40,0x76,0x6f,0x6c,0x75,0x6d,0x65,0x69,0x69))
     ShowMessageFace("",0,0,2,46)
     ShowMessage("ナターシャが仲間に加わった！")
     Wait(60)
     PictureDisplay(5,"80_succubus_st01",0,0,0,0,100,100,0,0)
     PictureMove(5,null,0,0,0,0,100,100,255,0,30,true)
     ShowMessageFace("succubus_fc1",0,0,2,47)
     ShowMessage("【サキュバス】")
     ShowMessage("これで、話は丸く収まりましたか……")
     ShowMessage("この男は責任を持ち、我が村にて法に照らした罰を与えましょう。")
     ShowMessageFace("d_succubus_fc1",0,0,2,48)
     ShowMessage("【ナターシャ】")
     ShowMessage("私も、この村に暴虐を働いた罰を受けるべきでは……")
     ShowMessageFace("succubus_fc1",0,0,2,49)
     ShowMessage("【サキュバス】")
     ShowMessage("罪に思うなら、世界を救うため働きなさい。")
     ShowMessage("勇者のパーティに尽くすのですよ。")
     ShowMessageFace("d_succubus_fc1",0,0,2,50)
     ShowMessage("【ナターシャ】")
     ShowMessage("……ご迷惑をお掛けしました。")
     ShowMessageFace("",0,0,2,51)
     ShowMessage("こうして、この事件は解決した。")
     ShowMessage("幸いにして犠牲者も出ず、僕達は村長の屋敷を後にしたのだった――")
     221()
     PictureClear(5)
     Wait(60)
     TeleportPlayer(0,45,39,11,2,2)
     ChangeSwitch(2210,2210,0)
     222()
     355("gain_medal(47)")
     If(0,6,0)
      ShowMessageFace("sonia_fc1",0,0,2,52)
      ShowMessage("【ソニア】")
      ShowMessage("これで、一件落着よね！")
      0()
     Else()
      ShowMessageFace("ruka_fc1",0,0,2,53)
      ShowMessage("【ルカ】")
      ShowMessage("これで、一件落着だね！")
      0()
     EndIf()
     ShowMessageFace("lily_fc1",0,0,2,54)
     ShowMessage("【リリィ】")
     ShowMessage("私の研究も、ほとんど完成したわ……")
     ShowMessage("この成果、あなた達に管理を任せてもいいかしら？")
     ShowMessageFace("lily_fc1",0,0,2,55)
     ShowMessage("【リリィ】")
     ShowMessage("これは、自身の肉体を媒介とした触手召還術。")
     ShowMessage("研究を重ねて、肉体や精神の負担も限界まで抑えたわ……")
     250(bytes(0x04,0x08,0x6f,0x3a,0x0c,0x52,0x50,0x47,0x3a,0x3a,0x53,0x45,0x08,0x3a,0x0a,0x40,0x6e,0x61,0x6d,0x65,0x49,0x22,0x0a,0x49,0x74,0x65,0x6d,0x31,0x06,0x3a,0x06,0x45,0x54,0x3a,0x0b,0x40,0x70,0x69,0x74,0x63,0x68,0x69,0x69,0x3a,0x0c,0x40,0x76,0x6f,0x6c,0x75,0x6d,0x65,0x69,0x55))
     ChangeInventory_Item(638,0,0,1)
     ShowMessageFace("lily_fc1",0,0,2,56)
     ShowMessage("【リリィ】")
     ShowMessage("これを習得できるのは、人間の身を持つ者のみ。")
     ShowMessage("イリアス神殿で、種族「ワームサマナー」に転種できるわよ。")
     If(0,4,0)
      ShowMessageFace("alice_fc5",1,0,2,57)
      ShowMessage("【アリス】")
      ShowMessage("分かった、これは我々が管理しよう。")
      0()
     EndIf()
     If(0,5,0)
      ShowMessageFace("iriasu_fc4",2,0,2,58)
      ShowMessage("【イリアス】")
      ShowMessage("このような危険なものは、私が管理しなければなりませんね。")
      ShowMessage("使用者はパーティのみ、門外不出の禁術とします。")
      0()
     EndIf()
     If(0,6,0)
      ShowMessageFace("ruka_fc1",0,0,2,59)
      ShowMessage("【ルカ】")
      ShowMessage("人間のみ、転種可能か……")
      ShowMessage("僕はちょっとイヤだけど、ソニアはどう？")
      ShowMessageFace("sonia_fc2",2,0,2,60)
      ShowMessage("【ソニア】")
      ShowMessage("触手召還かぁ……")
      ShowMessage("抵抗はあるけど、ちょっと使ってみたい気もするかも。")
      0()
     EndIf()
     RunCommonEvent(343)
     EndEventProcessing()
     0()
    EndIf()
    0()
   EndIf()
   221()
   PictureClear(5)
   250(bytes(0x04,0x08,0x6f,0x3a,0x0c,0x52,0x50,0x47,0x3a,0x3a,0x53,0x45,0x08,0x3a,0x0a,0x40,0x6e,0x61,0x6d,0x65,0x49,0x22,0x0e,0x6d,0x6f,0x6e,0x5f,0x73,0x6c,0x61,0x73,0x68,0x06,0x3a,0x06,0x45,0x54,0x3a,0x0b,0x40,0x70,0x69,0x74,0x63,0x68,0x69,0x69,0x3a,0x0c,0x40,0x76,0x6f,0x6c,0x75,0x6d,0x65,0x69,0x55))
   ShowMessageFace("",0,0,2,61)
   ShowMessage("【男】")
   ShowMessage("ぎゃぁぁ――――っ！！")
   Wait(60)
   TeleportPlayer(0,45,39,11,2,2)
   ChangeSwitch(2211,2211,0)
   222()
   355("gain_medal(47)")
   If(0,6,0)
    ShowMessageFace("sonia_fc2",2,0,2,62)
    ShowMessage("【ソニア】")
    ShowMessage("なんだか、後味の悪い結末よね……")
    ShowMessage("ああするより他に、なかったのかな？")
    0()
   Else()
    ShowMessageFace("ruka_fc1",0,0,2,63)
    ShowMessage("【ルカ】")
    ShowMessage("後味の悪い結末だったね……")
    0()
   EndIf()
   RunCommonEvent(343)
   EndEventProcessing()
   0()
  IfPlayerPicksChoice(1,null)
   EndEventProcessing()
   0()
  404()
  0()



EVENT   23
 PAGE   1
  0()



EVENT   24
 PAGE   1
  0()



EVENT   25
 PAGE   1
  0()



EVENT   26
 PAGE   1
  0()



EVENT   27
 PAGE   1
  0()



EVENT   28
 PAGE   1
  108("明かり設定3300300")
  0()



EVENT   29
 PAGE   1
  ShowMessageFace("",0,0,2,1)
  ShowMessage("【男】")
  ShowMessage("全部……吸われた……")
  0()



EVENT   30
 PAGE   1
  ShowMessageFace("",0,0,2,1)
  ShowMessage("【兵士】")
  ShowMessage("はぅぅぅぅ……")
  0()



EVENT   31
 PAGE   1
  108("明かり設定1243070015")
  0()



EVENT   32
 PAGE   1
  108("明かり設定3300300")
  0()



EVENT   33
 PAGE   1
  108("明かり設定3300200")
  0()



EVENT   34
 PAGE   1
  ShowMessageFace("",0,0,2,1)
  ShowMessage("【戦士】")
  ShowMessage("うぐぅ……歯が立たない……")
  0()



EVENT   35
 PAGE   1
  250(bytes(0x04,0x08,0x6f,0x3a,0x0c,0x52,0x50,0x47,0x3a,0x3a,0x53,0x45,0x08,0x3a,0x0a,0x40,0x6e,0x61,0x6d,0x65,0x49,0x22,0x09,0x4d,0x6f,0x76,0x65,0x06,0x3a,0x06,0x45,0x54,0x3a,0x0b,0x40,0x70,0x69,0x74,0x63,0x68,0x69,0x69,0x3a,0x0c,0x40,0x76,0x6f,0x6c,0x75,0x6d,0x65,0x69,0x55))
  TeleportPlayer(0,720,20,44,0,0)
  0()



EVENT   36
 PAGE   1
  250(bytes(0x04,0x08,0x6f,0x3a,0x0c,0x52,0x50,0x47,0x3a,0x3a,0x53,0x45,0x08,0x3a,0x0a,0x40,0x6e,0x61,0x6d,0x65,0x49,0x22,0x09,0x4d,0x6f,0x76,0x65,0x06,0x3a,0x06,0x45,0x54,0x3a,0x0b,0x40,0x70,0x69,0x74,0x63,0x68,0x69,0x69,0x3a,0x0c,0x40,0x76,0x6f,0x6c,0x75,0x6d,0x65,0x69,0x55))
  TeleportPlayer(0,720,66,14,8,0)
  0()



EVENT   37
 PAGE   1
  0()



EVENT   38
 PAGE   1
  0()



EVENT   39
 PAGE   1
  0()



EVENT   40
 PAGE   1
  0()



EVENT   41
 PAGE   1
  0()



EVENT   42
 PAGE   1
  250(bytes(0x04,0x08,0x6f,0x3a,0x0c,0x52,0x50,0x47,0x3a,0x3a,0x53,0x45,0x08,0x3a,0x0a,0x40,0x6e,0x61,0x6d,0x65,0x49,0x22,0x09,0x4d,0x6f,0x76,0x65,0x06,0x3a,0x06,0x45,0x54,0x3a,0x0b,0x40,0x70,0x69,0x74,0x63,0x68,0x69,0x69,0x3a,0x0c,0x40,0x76,0x6f,0x6c,0x75,0x6d,0x65,0x69,0x55))
  TeleportPlayer(0,720,66,49,8,0)
  0()



EVENT   43
 PAGE   1
  PictureDisplay(5,"80_maccubus_st02",0,0,0,0,100,100,0,0)
  PictureMove(5,null,0,0,0,0,100,100,255,0,30,true)
  ShowMessageFace("",0,0,2,1)
  ShowMessage("【戦士】")
  ShowMessage("あ、あぅぅぅ……")
  ShowMessageFace("maccubus_fc1",4,0,2,2)
  ShowMessage("【マキュバス】")
  ShowMessage("ほらほら……天国でしょう？")
  ShowMessage("もっとイかせてあげる……ほぉら、ほらほら……")
  ShowMessageFace("",0,0,2,3)
  ShowMessage("【戦士】")
  ShowMessage("あひ……あぁぁぁぁぁ――！！")
  ShowMessageFace("",0,0,2,4)
  ShowMessage("戦士は絶頂し、意識を失った……")
  PictureDisplay(5,"80_maccubus_st01",0,0,0,0,100,100,255,0)
  ShowMessageFace("maccubus_fc1",2,0,2,5)
  ShowMessage("【マキュバス】")
  ShowMessage("もう打ち止めなの……？")
  ShowMessage("ずるいじゃない、自分だけ先に果てちゃうなんて……")
  PictureClear(5)
  Wait(60)
  205(0,bytes(0x04,0x08,0x6f,0x3a,0x13,0x52,0x50,0x47,0x3a,0x3a,0x4d,0x6f,0x76,0x65,0x52,0x6f,0x75,0x74,0x65,0x09,0x3a,0x0c,0x40,0x72,0x65,0x70,0x65,0x61,0x74,0x46,0x3a,0x0f,0x40,0x73,0x6b,0x69,0x70,0x70,0x61,0x62,0x6c,0x65,0x46,0x3a,0x0a,0x40,0x77,0x61,0x69,0x74,0x54,0x3a,0x0a,0x40,0x6c,0x69,0x73,0x74,0x5b,0x08,0x6f,0x3a,0x15,0x52,0x50,0x47,0x3a,0x3a,0x4d,0x6f,0x76,0x65,0x43,0x6f,0x6d,0x6d,0x61,0x6e,0x64,0x07,0x3a,0x0a,0x40,0x63,0x6f,0x64,0x65,0x69,0x29,0x3a,0x10,0x40,0x70,0x61,0x72,0x61,0x6d,0x65,0x74,0x65,0x72,0x73,0x5b,0x00,0x6f,0x3b,0x0a,0x07,0x3b,0x0b,0x69,0x1e,0x3b,0x0c,0x5b,0x00,0x6f,0x3b,0x0a,0x07,0x3b,0x0b,0x69,0x00,0x3b,0x0c,0x5b,0x00))
  Wait(60)
  PictureDisplay(5,"80_maccubus_st02",0,0,0,0,100,100,0,0)
  PictureMove(5,null,0,0,0,0,100,100,255,0,30,true)
  ShowMessageFace("maccubus_fc1",4,0,2,6)
  ShowMessage("【マキュバス】")
  ShowMessage("それじゃあ、次は君を食べてあげるわ……")
  ShowMessage("ここに転がる餌達の一人にしてあげる……")
  ShowMessageFace("",0,0,2,7)
  ShowMessage("全身を男達の精液にまみれさせながら、元娼婦のサキュバスが迫ってきた！")
  If(0,4,0)
   ShowMessageFace("alice_fc5",2,0,2,8)
   ShowMessage("【アリス】")
   ShowMessage("完全に正気を失っているか……")
   ShowMessage("仕方ない、攻撃して目を覚まさせろ！")
   0()
  EndIf()
  If(0,5,0)
   ShowMessageFace("iriasu_fc4",2,0,2,9)
   ShowMessage("【イリアス】")
   ShowMessage("うわっ、汚ない……私はパスしていいですか？")
   0()
  EndIf()
  ShowMessageFace("ruka_fc1",0,0,2,10)
  ShowMessage("【ルカ】")
  ShowMessage("仕方ない……行くぞっ！")
  ShowMessageFace("maccubus_fc1",4,0,2,11)
  ShowMessage("【マキュバス】")
  ShowMessage("あなたの精液も、搾り取ってあげるからね……")
  ShowMessage("カラカラに干からびるまで、吸い取ってあげるわ……")
  If(12,"exist_party_persona_id?(241)")
   ShowMessageFace("a_emp_fc1",0,0,2,12)
   ShowMessage("【プリエステス】")
   ShowMessage("やらねばなりませんか……")
   0()
  EndIf()
  PictureClear(5)
  ChangeSwitch(22,22,0)
  Battle(0,739,false,false)
  ChangeSwitch(22,22,1)
  ChangeSwitch(2208,2208,0)
  PictureDisplay(5,"80_maccubus_st03",0,0,0,0,100,100,0,0)
  PictureMove(5,null,0,0,0,0,100,100,255,0,30,true)
  ShowMessageFace("maccubus_fc1",6,0,2,13)
  ShowMessage("【マキュバス】")
  ShowMessage("うぅっ……私、何をしてたの……？")
  ShowMessage("なんで精液まみれ……？")
  If(0,4,0)
   ShowMessageFace("alice_fc5",0,0,2,14)
   ShowMessage("【アリス】")
   ShowMessage("貴様はサキュバス化したのだ。")
   ShowMessage("言いにくいが、もう人間には戻れん……")
   0()
  EndIf()
  If(0,5,0)
   ShowMessageFace("iriasu_fc4",2,0,2,15)
   ShowMessage("【イリアス】")
   ShowMessage("あなたは薄汚いサキュバスになったのです。")
   ShowMessage("もはや、戻る事はできません……")
   0()
  EndIf()
  PictureDisplay(5,"80_maccubus_st01",0,0,0,0,100,100,255,0)
  ShowMessageFace("maccubus_fc1",2,0,2,16)
  ShowMessage("【マキュバス】")
  ShowMessage("そう……まあいいわ。")
  ShowMessage("とりあえず、シャワー浴びてくるわね。")
  If(0,6,0)
   ShowMessageFace("sonia_fc3",2,0,2,17)
   ShowMessage("【ソニア】")
   ShowMessage("切り替え、早っ！")
   0()
  Else()
   ShowMessageFace("ruka_fc1",0,0,2,18)
   ShowMessage("【ルカ】")
   ShowMessage("それでいいの……？")
   0()
  EndIf()
  PictureClear(5)
  0()
 PAGE   2
  // condition: switch 2208 is ON
  PictureDisplay(5,"80_maccubus_st01",0,0,0,0,100,100,0,0)
  PictureMove(5,null,0,0,0,0,100,100,255,0,30,true)
  ShowMessageFace("maccubus_fc1",2,0,2,1)
  ShowMessage("【マキュバス】")
  ShowMessage("あのラダイト村から来た男が、ゴタゴタの種になったのね……")
  ShowMessage("私は、あの男はあまり好きじゃなかったわ。")
  ShowMessageFace("maccubus_fc1",2,0,2,2)
  ShowMessage("【マキュバス】")
  ShowMessage("ちょっと前から、あのナターシャって淫魔は村に姿を見せてたの。")
  ShowMessage("村長と何度か交渉してたみたいだけど、こんな事になるなんて……")
  PictureClear(5)
  0()



EVENT   44
 PAGE   1
  ShowMessageFace("",0,0,2,1)
  ShowMessage("【戦士】")
  ShowMessage("あ、あぅぅぅ……")
  0()



EVENT   45
 PAGE   1
  ShowMessageFace("",0,0,2,1)
  ShowMessage("【剣士】")
  ShowMessage("なんてテクニックだ……")
  0()



EVENT   46
 PAGE   1
  0()



EVENT   47
 PAGE   1
  0()



EVENT   48
 PAGE   1
  0()



EVENT   49
 PAGE   1
  0()



EVENT   50
 PAGE   1
  0()



EVENT   51
 PAGE   1
  0()



EVENT   52
 PAGE   1
  0()



EVENT   53
 PAGE   1
  0()



EVENT   54
 PAGE   1
  0()



EVENT   55
 PAGE   1
  0()



EVENT   56
 PAGE   1
  0()



EVENT   57
 PAGE   1
  0()



EVENT   58
 PAGE   1
  0()



EVENT   59
 PAGE   1
  281(1)
  250(bytes(0x04,0x08,0x6f,0x3a,0x0c,0x52,0x50,0x47,0x3a,0x3a,0x53,0x45,0x08,0x3a,0x0a,0x40,0x6e,0x61,0x6d,0x65,0x49,0x22,0x09,0x4d,0x6f,0x76,0x65,0x06,0x3a,0x06,0x45,0x54,0x3a,0x0b,0x40,0x70,0x69,0x74,0x63,0x68,0x69,0x69,0x3a,0x0c,0x40,0x76,0x6f,0x6c,0x75,0x6d,0x65,0x69,0x55))
  TeleportPlayer(0,719,30,30,0,0)
  0()



EVENT   60
 PAGE   1
  ShowMessageFace("",0,0,2,1)
  ShowMessage("【屈強そうな男】")
  ShowMessage("あぁぁ……天国が……")
  0()



EVENT   61
 PAGE   1
  ShowMessageFace("",0,0,2,1)
  ShowMessage("【旅の剣士】")
  ShowMessage("こんなの……無理……")
  0()



EVENT   62
 PAGE   1
  ShowMessageFace("",0,0,2,1)
  ShowMessage("【兵士】")
  ShowMessage("根こそぎ搾り取られました……")
  ShowMessage("幸せです……")
  0()



EVENT   63
 PAGE   1
  ShowMessageFace("",0,0,2,1)
  ShowMessage("【戦士】")
  ShowMessage("もう出ない……はぅぅぅ……")
  0()



EVENT   64
 PAGE   1
  250(bytes(0x04,0x08,0x6f,0x3a,0x0c,0x52,0x50,0x47,0x3a,0x3a,0x53,0x45,0x08,0x3a,0x0a,0x40,0x6e,0x61,0x6d,0x65,0x49,0x22,0x09,0x4d,0x6f,0x76,0x65,0x06,0x3a,0x06,0x45,0x54,0x3a,0x0b,0x40,0x70,0x69,0x74,0x63,0x68,0x69,0x69,0x3a,0x0c,0x40,0x76,0x6f,0x6c,0x75,0x6d,0x65,0x69,0x55))
  TeleportPlayer(0,720,66,19,2,0)
  0()



EVENT   65
 PAGE   1
  ShowMessageFace("",0,0,2,1)
  ShowMessage("【ごろつき】")
  ShowMessage("ぉ……ぅぅ……")
  0()



EVENT   66
 PAGE   1
  PictureDisplay(5,"80_succubus_st03",0,0,0,0,100,100,0,0)
  PictureMove(5,null,0,0,0,0,100,100,255,0,30,true)
  ShowMessageFace("succubus_fc1",3,0,2,1)
  ShowMessage("【サキュバス】")
  ShowMessage("旅の方、助力をお願いできない？")
  ShowMessage("この少女の怒りは理解できるけど、だからこそ止めないと……！")
  If(0,2096,0)
   If(0,1167,0)
    ShowMessageFace("lusia_fc1",2,0,2,2)
    ShowMessage("【ルシア】")
    ShowMessage("リリィと同じ悲劇は、歩ませはしません……")
    ShowMessage("さあ、ナターシャを止めましょう！")
    0()
   EndIf()
   0()
  EndIf()
  PictureClear(5)
  ShowMessageFace("ruka_fc1",0,0,2,3)
  ShowMessage("【ルカ】")
  ShowMessage("……………………")
  ShowChoices(strings("サキュバスに味方しナターシャと戦う","やめておく"),2)
  IfPlayerPicksChoice(0,null)
   205(-1,bytes(0x04,0x08,0x6f,0x3a,0x13,0x52,0x50,0x47,0x3a,0x3a,0x4d,0x6f,0x76,0x65,0x52,0x6f,0x75,0x74,0x65,0x09,0x3a,0x0c,0x40,0x72,0x65,0x70,0x65,0x61,0x74,0x46,0x3a,0x0f,0x40,0x73,0x6b,0x69,0x70,0x70,0x61,0x62,0x6c,0x65,0x46,0x3a,0x0a,0x40,0x77,0x61,0x69,0x74,0x54,0x3a,0x0a,0x40,0x6c,0x69,0x73,0x74,0x5b,0x07,0x6f,0x3a,0x15,0x52,0x50,0x47,0x3a,0x3a,0x4d,0x6f,0x76,0x65,0x43,0x6f,0x6d,0x6d,0x61,0x6e,0x64,0x07,0x3a,0x0a,0x40,0x63,0x6f,0x64,0x65,0x69,0x17,0x3a,0x10,0x40,0x70,0x61,0x72,0x61,0x6d,0x65,0x74,0x65,0x72,0x73,0x5b,0x00,0x6f,0x3b,0x0a,0x07,0x3b,0x0b,0x69,0x00,0x3b,0x0c,0x5b,0x00))
   ShowMessageFace("ruka_fc1",0,0,2,4)
   ShowMessage("【ルカ】")
   ShowMessage("分かりました、ナターシャを止めます！")
   PictureDisplay(5,"80_d_succubus_st03b",0,0,0,0,100,100,0,0)
   PictureMove(5,null,0,0,0,0,100,100,255,0,30,true)
   ShowMessageFace("d_succubus_fc1",2,0,2,5)
   ShowMessage("【ナターシャ】")
   ShowMessage("やっぱり邪魔をするのですね……")
   ShowMessage("私を助けてくれなかったのに、こんな男は救うなんて……！")
   ShowMessageFace("ruka_fc1",0,0,2,6)
   ShowMessage("【ルカ】")
   ShowMessage("男は助けるし、君にも道を誤らせない……行くぞ！")
   ShowMessageFace("d_succubus_fc1",2,0,2,7)
   ShowMessage("【ナターシャ】")
   ShowMessage("……なら、あなたをメチャクチャになるまで嫐り尽くします！")
   ShowMessage("この私がされたように！")
   If(4,288,0)
    ShowMessageFace("d_succubus_fc1",0,0,2,8)
    ShowMessage("【ナターシャ’】")
    ShowMessage("確かに悲しいものですね……")
    ShowMessage("復讐しか行き場がないと信じ込んだ者は……")
    ShowMessageFace("d_succubus_fc1",2,0,2,9)
    ShowMessage("【ナターシャ】")
    ShowMessage("誰が何を言おうが、私にはこれしかないんです！")
    ShowMessage("この男を殺さないと、私は前に進めない！")
    0()
   EndIf()
   If(4,129,0)
    ShowMessageFace("brunhild_fc1",0,0,2,10)
    ShowMessage("【ヒルデ】")
    ShowMessage("対象、敵淫魔……戦闘開始だよ。")
    0()
   EndIf()
   If(4,79,0)
    ShowMessageFace("nuruko_fc1",0,0,2,11)
    ShowMessage("【ヌルコ】")
    ShowMessage("きゅきゅー！")
    0()
   EndIf()
   PictureClear(5)
   SetBattleBGM(bytes(0x04,0x08,0x6f,0x3a,0x0d,0x52,0x50,0x47,0x3a,0x3a,0x42,0x47,0x4d,0x08,0x3a,0x0a,0x40,0x6e,0x61,0x6d,0x65,0x49,0x22,0x0a,0x62,0x6f,0x73,0x73,0x31,0x06,0x3a,0x06,0x45,0x54,0x3a,0x0c,0x40,0x76,0x6f,0x6c,0x75,0x6d,0x65,0x69,0x69,0x3a,0x0b,0x40,0x70,0x69,0x74,0x63,0x68,0x69,0x69))
   ChangeSwitch(22,22,0)
   283("DecorativeTile","Castle3")
   Battle(0,742,false,false)
   ChangeSwitch(22,22,1)
   SetBattleBGM(bytes(0x04,0x08,0x6f,0x3a,0x0d,0x52,0x50,0x47,0x3a,0x3a,0x42,0x47,0x4d,0x08,0x3a,0x0a,0x40,0x6e,0x61,0x6d,0x65,0x49,0x22,0x0b,0x62,0x61,0x74,0x74,0x6c,0x65,0x06,0x3a,0x06,0x45,0x54,0x3a,0x0c,0x40,0x76,0x6f,0x6c,0x75,0x6d,0x65,0x69,0x69,0x3a,0x0b,0x40,0x70,0x69,0x74,0x63,0x68,0x69,0x69))
   ChangeSwitch(1908,1908,0)
   314(0,0)
   281(1)
   TeleportPlayer(0,720,11,38,8,2)
   TeleportEvent(66,0,10,36,2)
   241(bytes(0x04,0x08,0x6f,0x3a,0x0d,0x52,0x50,0x47,0x3a,0x3a,0x42,0x47,0x4d,0x08,0x3a,0x0a,0x40,0x6e,0x61,0x6d,0x65,0x49,0x22,0x13,0x73,0x63,0x65,0x6e,0x65,0x5f,0x6f,0x64,0x61,0x79,0x61,0x6b,0x61,0x32,0x06,0x3a,0x06,0x45,0x54,0x3a,0x0c,0x40,0x76,0x6f,0x6c,0x75,0x6d,0x65,0x69,0x69,0x3a,0x0b,0x40,0x70,0x69,0x74,0x63,0x68,0x69,0x69))
   PictureDisplay(5,"80_d_succubus_st03b",0,0,0,0,100,100,0,0)
   PictureMove(5,null,0,0,0,0,100,100,255,0,30,true)
   ShowMessageFace("d_succubus_fc1",2,0,2,12)
   ShowMessage("【ナターシャ】")
   ShowMessage("こんな……私の復讐が……")
   205(0,bytes(0x04,0x08,0x6f,0x3a,0x13,0x52,0x50,0x47,0x3a,0x3a,0x4d,0x6f,0x76,0x65,0x52,0x6f,0x75,0x74,0x65,0x09,0x3a,0x0c,0x40,0x72,0x65,0x70,0x65,0x61,0x74,0x46,0x3a,0x0f,0x40,0x73,0x6b,0x69,0x70,0x70,0x61,0x62,0x6c,0x65,0x46,0x3a,0x0a,0x40,0x77,0x61,0x69,0x74,0x54,0x3a,0x0a,0x40,0x6c,0x69,0x73,0x74,0x5b,0x07,0x6f,0x3a,0x15,0x52,0x50,0x47,0x3a,0x3a,0x4d,0x6f,0x76,0x65,0x43,0x6f,0x6d,0x6d,0x61,0x6e,0x64,0x07,0x3a,0x0a,0x40,0x63,0x6f,0x64,0x65,0x69,0x15,0x3a,0x10,0x40,0x70,0x61,0x72,0x61,0x6d,0x65,0x74,0x65,0x72,0x73,0x5b,0x00,0x6f,0x3b,0x0a,0x07,0x3b,0x0b,0x69,0x00,0x3b,0x0c,0x5b,0x00))
   PictureDisplay(5,"80_succubus_st01",0,0,0,0,100,100,255,0)
   ShowMessageFace("succubus_fc1",0,0,2,13)
   ShowMessage("【サキュバス】")
   ShowMessage("ありがとう、手を貸してくれて……")
   ShowMessage("あなた達がいなければ、彼女は止められなかったわ。")
   ShowMessageFace("",0,0,2,14)
   ShowMessage("【男】")
   ShowMessage("へへ、助かったぜ……")
   ShowMessage("守ってくれて、ありがとな！")
   205(0,bytes(0x04,0x08,0x6f,0x3a,0x13,0x52,0x50,0x47,0x3a,0x3a,0x4d,0x6f,0x76,0x65,0x52,0x6f,0x75,0x74,0x65,0x09,0x3a,0x0c,0x40,0x72,0x65,0x70,0x65,0x61,0x74,0x46,0x3a,0x0f,0x40,0x73,0x6b,0x69,0x70,0x70,0x61,0x62,0x6c,0x65,0x46,0x3a,0x0a,0x40,0x77,0x61,0x69,0x74,0x54,0x3a,0x0a,0x40,0x6c,0x69,0x73,0x74,0x5b,0x07,0x6f,0x3a,0x15,0x52,0x50,0x47,0x3a,0x3a,0x4d,0x6f,0x76,0x65,0x43,0x6f,0x6d,0x6d,0x61,0x6e,0x64,0x07,0x3a,0x0a,0x40,0x63,0x6f,0x64,0x65,0x69,0x16,0x3a,0x10,0x40,0x70,0x61,0x72,0x61,0x6d,0x65,0x74,0x65,0x72,0x73,0x5b,0x00,0x6f,0x3b,0x0a,0x07,0x3b,0x0b,0x69,0x00,0x3b,0x0c,0x5b,0x00))
   ShowMessageFace("succubus_fc1",0,0,2,15)
   ShowMessage("【サキュバス】")
   ShowMessage("あなたの事も、確かに聞いたわ。")
   ShowMessage("ナターシャの私刑に応じる事は断じて出来ないけれど……")
   ShowMessageFace("succubus_fc1",0,0,2,16)
   ShowMessage("【サキュバス】")
   ShowMessage("この村の一員として、正当なる法に基づき裁判を行うわ。")
   ShowMessage("おそらく、数十年の禁固刑は免れないはずよ。")
   ShowMessageFace("",0,0,2,17)
   ShowMessage("【男】")
   ShowMessage("そ、そんな……！")
   ShowMessageFace("succubus_fc1",0,0,2,18)
   ShowMessage("【サキュバス】")
   ShowMessage("ナターシャも、我が村で預かる事にして良いかしら？")
   ShowMessage("罪人としてではなく、行き場をなくした子羊として……ね。")
   PictureDisplay(5,"80_succubus_st01",0,0,-150,0,100,100,255,0)
   PictureDisplay(6,"80_d_succubus_st03",0,0,150,0,100,100,255,0)
   ShowMessageFace("d_succubus_fc1",2,0,2,19)
   ShowMessage("【ナターシャ】")
   ShowMessage("どうせ私は敗者、お好きなように……")
   If(0,2096,0)
    If(0,1167,0)
     ShowMessageFace("lusia_fc1",0,0,2,20)
     ShowMessage("【ルシア】")
     ShowMessage("あなたはきっと、綺麗事と断じるでしょうが……")
     ShowMessage("自身の無力感を振り払う処方箋として、復讐は最も勧められません。")
     ShowMessageFace("d_succubus_fc1",2,0,2,21)
     ShowMessage("【ナターシャ】")
     ShowMessage("……………………")
     ShowMessageFace("lusia_fc1",2,0,2,22)
     ShowMessage("【ルシア】")
     ShowMessage("あなたを見ていると、私の友人を思い出します。")
     ShowMessage("私自身、そう違った境遇でもないですが……")
     ShowMessageFace("lusia_fc1",0,0,2,23)
     ShowMessage("【ルシア】")
     ShowMessage("でも……あなたは、まだ手を血で汚していない。")
     ShowMessage("きっと立ち直る事ができるはずです。")
     PictureClear(6)
     PictureDisplay(5,"80_succubus_st01",0,0,0,0,100,100,255,0)
     If(0,4,0)
      ShowMessageFace("alice_fc5",0,0,2,24)
      ShowMessage("【アリス】")
      ShowMessage("うむ……それでは村長、後の始末は任せたぞ。")
      ShowMessage("我々も為すべき事が多い身、あまりのんびりはしていられん。")
      0()
     EndIf()
     If(0,5,0)
      ShowMessageFace("iriasu_fc4",0,0,2,25)
      ShowMessage("【イリアス】")
      ShowMessage("さて……村長、後の始末は任せましたよ。")
      ShowMessage("我々は忙しいのです、時間の無駄遣いはできません。")
      0()
     EndIf()
     ShowMessageFace("succubus_fc1",0,0,2,26)
     ShowMessage("【サキュバス】")
     ShowMessage("あなた達には、感謝の言葉もないわね……")
     ShowMessage("何かあれば、今度は私から力を貸すわ。")
     PictureClear(5)
     ShowMessageFace("",0,0,2,27)
     ShowMessage("こうして、この事件は解決した。")
     ShowMessage("幸いにして犠牲者も出ず、僕達は村長の屋敷を後にしたのだった――")
     221()
     Wait(60)
     TeleportPlayer(0,45,39,11,2,2)
     ChangeSwitch(2212,2212,0)
     222()
     355("gain_medal(47)")
     241(bytes(0x04,0x08,0x6f,0x3a,0x0d,0x52,0x50,0x47,0x3a,0x3a,0x42,0x47,0x4d,0x08,0x3a,0x0a,0x40,0x6e,0x61,0x6d,0x65,0x49,0x22,0x14,0x73,0x63,0x65,0x6e,0x65,0x5f,0x65,0x70,0x69,0x6c,0x6f,0x67,0x75,0x65,0x32,0x06,0x3a,0x06,0x45,0x54,0x3a,0x0c,0x40,0x76,0x6f,0x6c,0x75,0x6d,0x65,0x69,0x69,0x3a,0x0b,0x40,0x70,0x69,0x74,0x63,0x68,0x69,0x69))
     If(0,6,0)
      ShowMessageFace("sonia_fc1",0,0,2,28)
      ShowMessage("【ソニア】")
      ShowMessage("これで、一件落着よね！")
      0()
     Else()
      ShowMessageFace("ruka_fc1",0,0,2,29)
      ShowMessage("【ルカ】")
      ShowMessage("これで、一件落着だね！")
      0()
     EndIf()
     RunCommonEvent(343)
     EndEventProcessing()
     0()
    EndIf()
    0()
   EndIf()
   If(0,4,0)
    ShowMessageFace("alice_fc5",0,0,2,30)
    ShowMessage("【アリス】")
    ShowMessage("ナターシャは、まだまだ反抗的なようだが……")
    ShowMessage("まあ、仕方あるまい。")
    0()
   EndIf()
   If(0,5,0)
    ShowMessageFace("iriasu_fc4",0,0,2,31)
    ShowMessage("【イリアス】")
    ShowMessage("ナターシャは、まだまだ反抗的なようですね……")
    ShowMessage("調教が足りなかったでしょうか。")
    0()
   EndIf()
   PictureClear(6)
   PictureDisplay(5,"80_succubus_st01",0,0,0,0,100,100,255,0)
   ShowMessageFace("succubus_fc1",0,0,2,32)
   ShowMessage("【サキュバス】")
   ShowMessage("手を焼くでしょうけど、なんとかやっていくわ。")
   ShowMessage("あなた達には、世話になったわね……")
   ShowMessageFace("succubus_fc1",0,0,2,33)
   ShowMessage("【サキュバス】")
   ShowMessage("お礼をしたいけれど、当分はこちらも忙しい身よ。")
   ShowMessage("村人の救護やら、ナターシャの監視やら……")
   If(0,4,0)
    ShowMessageFace("alice_fc5",0,0,2,34)
    ShowMessage("【アリス】")
    ShowMessage("うむ……それでは村長、後の始末は任せたぞ。")
    0()
   EndIf()
   If(0,5,0)
    ShowMessageFace("iriasu_fc4",0,0,2,35)
    ShowMessage("【イリアス】")
    ShowMessage("では……村長、後の始末は任せましたよ。")
    0()
   EndIf()
   PictureClear(5)
   ShowMessageFace("",0,0,2,36)
   ShowMessage("こうして、この事件は解決した。")
   ShowMessage("幸いにして犠牲者も出ず、僕達は村長の屋敷を後にしたのだった――")
   221()
   Wait(60)
   TeleportPlayer(0,45,39,11,2,2)
   ChangeSwitch(2213,2213,0)
   222()
   355("gain_medal(47)")
   If(0,6,0)
    ShowMessageFace("sonia_fc1",0,0,2,37)
    ShowMessage("【ソニア】")
    ShowMessage("ナターシャは可哀想だったけど……まあ解決よね。")
    0()
   Else()
    ShowMessageFace("ruka_fc1",0,0,2,38)
    ShowMessage("【ルカ】")
    ShowMessage("ナターシャは可哀想だったけど……まあ解決だね。")
    0()
   EndIf()
   RunCommonEvent(343)
   0()
  IfPlayerPicksChoice(1,null)
   EndEventProcessing()
   0()
  404()
  0()



EVENT   67
 PAGE   1
  ShowMessageFace("",0,0,2,1)
  ShowMessage("【青年】")
  ShowMessage("す、すごかった……")
  0()



EVENT   68
 PAGE   1
  ShowMessageFace("",0,0,2,1)
  ShowMessage("【村のサキュバス】")
  ShowMessage("ウィッチ様がいれば……")
  ShowMessage("勝てないまでも、善戦できたのに……")
  0()



EVENT   69
 PAGE   1
  ShowMessageFace("",0,0,2,1)
  ShowMessage("【メイド】")
  ShowMessage("村長様が……地下に追い詰められて……")
  0()



EVENT   70
 PAGE   1
  ShowMessageFace("mob_ozyou_fc1",0,0,2,1)
  ShowMessage("【アレリア】")
  ShowMessage("わたくしも、バトルファッカーのはしくれ……")
  ShowMessage("この程度の淫魔に、遅れは取りませんわ。")
  ShowMessageFace("mob_ozyou_fc1",0,0,2,2)
  ShowMessage("【アレリア】")
  ShowMessage("バトルファックのお誘いならば、また後日。")
  ShowMessage("落ち着いたときに、楽しみましょう……")
  0()



EVENT   71
 PAGE   1
  ShowMessageFace("",0,0,2,1)
  ShowMessage("【攻めてきたサキュバス】")
  ShowMessage("に、人間に……負けるなんて……")
  0()



EVENT   72
 PAGE   1
  ShowMessageFace("",0,0,2,1)
  ShowMessage("【メイド】")
  ShowMessage("あぁ、天に昇るよう……")
  0()



EVENT   73
 PAGE   1
  ShowMessageFace("",0,0,2,1)
  ShowMessage("【メイド】")
  ShowMessage("ウィッチ様は、何かの儀式で出掛けられて……")
  0()



EVENT   74
 PAGE   1
  ShowMessageFace("",0,0,2,1)
  ShowMessage("【メイド】")
  ShowMessage("村長様を……早く……")
  0()



EVENT   75
 PAGE   1
  ShowMessageFace("",0,0,2,1)
  ShowMessage("【男】")
  ShowMessage("ひぃぃ……俺が悪いわけじゃないんだ！")
  ShowMessage("なあ、何とかしろよ！　お前、勇者なんだろ！？")
  355("actor_label_jump")
  EndEventProcessing()
  DefineLabel("171")
  ShowMessageFace("lizardboss_fc1",5,0,2,2)
  ShowMessage("【ミランダ】")
  ShowMessage("見下げ果てた下衆だね……")
  EndEventProcessing()
  DefineLabel("226")
  ShowMessageFace("sirohebisama_fc1",0,0,2,3)
  ShowMessage("【白蛇様】")
  ShowMessage("このような者を守らねばならんとは……")
  ShowMessage("勇者も大変じゃのう。")
  EndEventProcessing()
  0()



EVENT   76
 PAGE   1
  RunCommonEvent(342)
  0()
 PAGE   2
  // condition: switch 2209 is ON
  0()



EVENT   77
 PAGE   1
  RunCommonEvent(342)
  0()
 PAGE   2
  // condition: switch 2209 is ON
  0()



EVENT   78
 PAGE   1
  RunCommonEvent(342)
  0()
 PAGE   2
  // condition: switch 2209 is ON
  0()



EVENT   79
 PAGE   1
  RunCommonEvent(342)
  0()
 PAGE   2
  // condition: switch 2209 is ON
  0()



EVENT   80
 PAGE   1
  RunCommonEvent(342)
  0()
 PAGE   2
  // condition: switch 2209 is ON
  0()



EVENT   81
 PAGE   1
  RunCommonEvent(342)
  0()
 PAGE   2
  // condition: switch 2209 is ON
  0()



EVENT   82
 PAGE   1
  RunCommonEvent(342)
  0()
 PAGE   2
  // condition: switch 2209 is ON
  0()



EVENT   83
 PAGE   1
  RunCommonEvent(342)
  0()
 PAGE   2
  // condition: switch 2209 is ON
  0()



EVENT   84
 PAGE   1
  RunCommonEvent(342)
  0()
 PAGE   2
  // condition: switch 2209 is ON
  0()

EVENT   85
 PAGE   1
  250(bytes(0x04,0x08,0x6f,0x3a,0x0c,0x52,0x50,0x47,0x3a,0x3a,0x53,0x45,0x08,0x3a,0x0a,0x40,0x6e,0x61,0x6d,0x65,0x49,0x22,0x0a,0x48,0x65,0x61,0x6c,0x37,0x06,0x3a,0x06,0x45,0x54,0x3a,0x0b,0x40,0x70,0x69,0x74,0x63,0x68,0x69,0x69,0x3a,0x0c,0x40,0x76,0x6f,0x6c,0x75,0x6d,0x65,0x69,0x55))
  224(bytes(0x04,0x08,0x75,0x3a,0x0a,0x43,0x6f,0x6c,0x6f,0x72,0x25,0x00,0x00,0x00,0x00,0x00,0xe0,0x6f,0x40,0x00,0x00,0x00,0x00,0x00,0xe0,0x6f,0x40,0x00,0x00,0x00,0x00,0x00,0xe0,0x6f,0x40,0x00,0x00,0x00,0x00,0x00,0xe0,0x6f,0x40),30,true)
  314(0,0)
  ShowMessageFace("",0,0,2,1)
  ShowMessage("The party's HP and MP have been fully restored!")
  0()


