// EVENT 0056
Name "Skill: Play 161-170"

ChangeVariable(11,11,0,2,1,5)
If(1,100,0,161,0)
 If(1,11,0,1,0)
  ShowMessageFace("ustrel_fc1",0,0,2,1)
  ShowMessage("\\n<Lemon>I am surprisingly versatile...")
  ShowMessageFace("",0,0,2,2)
  ShowMessage("Lemon is juggling...")
  ShowMessage("However, nobody is watching!")
  EndEventProcessing()
  0()
 EndIf()
 If(1,11,0,2,0)
  ShowMessageFace("ustrel_fc1",0,0,2,3)
  ShowMessage("\\n<Lemon>Hat throw! Ehhh!")
  ShowMessageFace("",0,0,2,4)
  ShowMessage("Lemon threw a hat!")
  ShowMessage("But it immediately fell to the ground.")
  EndEventProcessing()
  0()
 EndIf()
 If(1,11,0,3,0)
  ShowMessageFace("ustrel_fc1",0,0,2,5)
  ShowMessage("\\n<Lemon>Should I try fortune telling?")
  ShowMessageFace("",0,0,2,6)
  ShowMessage("Lemon is telling today's fortune.")
  EndEventProcessing()
  0()
 EndIf()
 If(1,11,0,4,0)
  ShowMessageFace("ustrel_fc1",0,0,2,7)
  ShowMessage("\\n<Lemon>Fufufuu...")
  355("interrupt_skill(3296)")
  EndEventProcessing()
  0()
 EndIf()
 If(1,11,0,5,0)
  ShowMessageFace("ustrel_fc1",0,0,2,8)
  ShowMessage("\\n<Lemon>Let's eat.")
  ShowMessageFace("",0,0,2,9)
  ShowMessage("Lemon is feeding the tentacles on her lower half.")
  EndEventProcessing()
  0()
 EndIf()
 0()
EndIf()
If(1,100,0,162,0)
 If(1,11,0,1,0)
  ShowMessageFace("mitutubo_fc1",0,0,2,10)
  ShowMessage("\\n<Mitsuko>Honeypot sticky, sticky...")
  ShowMessageFace("",0,0,2,11)
  ShowMessage("Mitsuko is vigorously stirring the inside of her pot.")
  EndEventProcessing()
  0()
 EndIf()
 If(1,11,0,2,0)
  ShowMessageFace("mitutubo_fc1",0,0,2,12)
  ShowMessage("\\n<Mitsuko>Here, take this. ♪")
  ShowMessageFace("",0,0,2,13)
  ShowMessage("Mitsuko presents a gift!")
  250(bytes(0x04,0x08,0x6f,0x3a,0x0c,0x52,0x50,0x47,0x3a,0x3a,0x53,0x45,0x08,0x3a,0x0a,0x40,0x6e,0x61,0x6d,0x65,0x49,0x22,0x0a,0x49,0x74,0x65,0x6d,0x31,0x06,0x3a,0x06,0x45,0x54,0x3a,0x0b,0x40,0x70,0x69,0x74,0x63,0x68,0x69,0x69,0x3a,0x0c,0x40,0x76,0x6f,0x6c,0x75,0x6d,0x65,0x69,0x55))
  ChangeInventory_Item(403,0,0,1)
  ChangeInventory_Item(436,0,0,1)
  ShowMessageFace("",0,0,2,14)
  ShowMessage("You obtain [Takoyaki and Honey]!")
  EndEventProcessing()
  0()
 EndIf()
 If(1,11,0,3,0)
  ShowMessageFace("mitutubo_fc1",2,0,2,15)
  ShowMessage("\\n<Mitsuko>...Ahhh?!")
  ShowMessageFace("",0,0,2,16)
  ShowMessage("Mitsuko fell over and turned upside down!")
  ShowMessage("Mucus is strewn about!")
  EndEventProcessing()
  0()
 EndIf()
 If(1,11,0,4,0)
  ShowMessageFace("mitutubo_fc1",0,0,2,17)
  ShowMessage("\\n<Mitsuko>......")
  ShowMessageFace("",0,0,2,18)
  ShowMessage("Mitsuko withdrew into her pot.")
  EndEventProcessing()
  0()
 EndIf()
 If(1,11,0,5,0)
  ShowMessageFace("mitutubo_fc1",0,0,2,19)
  ShowMessage("\\n<Mitsuko>Good night. ♪")
  313(0,162,0,11)
  ShowMessageFace("",0,0,2,20)
  ShowMessage("Mitsuko fell asleep.")
  EndEventProcessing()
  0()
 EndIf()
 0()
EndIf()
If(1,100,0,163,0)
 If(1,11,0,1,0)
  ShowMessageFace("lily_fc1",4,0,2,21)
  ShowMessage("\\n<Lily>Fufuu, I wonder what kind of experiment I should perform?")
  ShowMessageFace("",0,0,2,22)
  ShowMessage("Lily is grinning.")
  EndEventProcessing()
  0()
 EndIf()
 If(1,11,0,2,0)
  ShowMessageFace("lily_fc1",3,0,2,23)
  ShowMessage("\\n<Lily>Yaah!")
  355("interrupt_skill(3292)")
  EndEventProcessing()
  0()
 EndIf()
 If(1,11,0,3,0)
  ShowMessageFace("lily_fc1",4,0,2,24)
  ShowMessage("\\n<Lily>You have to be careful with fire, fufufuu.")
  355("interrupt_skill(3295)")
  EndEventProcessing()
  0()
 EndIf()
 If(1,11,0,4,0)
  ShowMessageFace("lily_fc1",4,0,2,25)
  ShowMessage("\\n<Lily>I am the world's savior!")
  ShowMessageFace("",0,0,2,26)
  ShowMessage("Lily makes a bold declaration!")
  ShowMessage("...But nobody was listening.")
  EndEventProcessing()
  0()
 EndIf()
 If(1,11,0,5,0)
  ShowMessageFace("lily_fc1",4,0,2,27)
  ShowMessage("\\n<Lily>This medicine will double your strength!")
  355("interrupt_skill(3304)")
  EndEventProcessing()
  0()
 EndIf()
 0()
EndIf()
If(1,100,0,164,0)
 If(1,11,0,1,0)
  ShowMessageFace("kooni_fc1",0,0,2,28)
  ShowMessage("\\n<Shizuku>Oni always put training before anything else!")
  ShowMessageFace("",0,0,2,29)
  ShowMessage("Shizuku is swinging her club!")
  EndEventProcessing()
  0()
 EndIf()
 If(1,11,0,2,0)
  ShowMessageFace("kooni_fc1",0,0,2,30)
  ShowMessage("\\n<Shizuku>Oni always put training before anything else!")
  355("interrupt_skill(3291)")
  EndEventProcessing()
  0()
 EndIf()
 If(1,11,0,3,0)
  ShowMessageFace("kooni_fc1",0,0,2,31)
  ShowMessage("\\n<Shizuku>Ehehee, no one is looking...")
  ShowMessageFace("",0,0,2,32)
  ShowMessage("Shizuku is eating some food she stole.")
  EndEventProcessing()
  0()
 EndIf()
 If(1,11,0,4,0)
  ShowMessageFace("kooni_fc1",2,0,2,33)
  ShowMessage("\\n<Shizuku>Hey! Is dinner ready yet?!")
  ShowMessageFace("",0,0,2,34)
  ShowMessage("Shizuku taps a bowl with some chopsticks.")
  ShowMessage("However, nobody would serve her!")
  313(0,164,0,11)
  ShowMessageFace("",0,0,2,35)
  ShowMessage("After pouting for a while Shizuku fell asleep.")
  EndEventProcessing()
  0()
 EndIf()
 If(1,11,0,5,0)
  ShowMessageFace("kooni_fc1",0,0,2,36)
  ShowMessage("\\n<Shizuku>I'm going on a rampage!!")
  355("interrupt_skill(3294)")
  EndEventProcessing()
  0()
 EndIf()
 0()
EndIf()
If(1,100,0,165,0)
 If(1,11,0,1,0)
  ShowMessageFace("onaho_fc1",0,0,2,37)
  ShowMessage("\\n<Naho>After using an onahole, please wash and dry it thoroughly.")
  ShowMessageFace("",0,0,2,38)
  ShowMessage("Naho is laying on the ground, sun tanning.")
  EndEventProcessing()
  0()
 EndIf()
 If(1,11,0,2,0)
  ShowMessageFace("onaho_fc1",0,0,2,39)
  ShowMessage("\\n<Naho>Wait a little longer... Should I make more folds in the back?")
  ShowMessageFace("",0,0,2,40)
  ShowMessage("Naho is changing the shape of her onaholes.")
  EndEventProcessing()
  0()
 EndIf()
 If(1,11,0,3,0)
  ShowMessageFace("onaho_fc1",0,0,2,41)
  ShowMessage("\\n<Naho>Yah! Yahh!")
  355("interrupt_skill(3308)")
  EndEventProcessing()
  0()
 EndIf()
 If(1,11,0,4,0)
  ShowMessageFace("onaho_fc1",0,0,2,42)
  ShowMessage("\\n<Naho>Do your best! ♪")
  ShowMessageFace("",0,0,2,43)
  ShowMessage("Naho is cheering for everyone!")
  ShowMessage("... But nobody is listening.")
  EndEventProcessing()
  0()
 EndIf()
 If(1,11,0,5,0)
  ShowMessageFace("onaho_fc1",0,0,2,44)
  ShowMessage("\\n<Naho>Let's gooo, cheerful fun. ♪")
  ShowMessageFace("",0,0,2,45)
  ShowMessage("Naho is happily singing and dancing.")
  EndEventProcessing()
  0()
 EndIf()
 0()
EndIf()
If(1,100,0,166,0)
 If(1,11,0,1,0)
  ShowMessageFace("narcubus_fc1",0,0,2,46)
  ShowMessage("\\n<Nabisu>All right, time for an injection. ♪ Please hold out your arm, okay?")
  ShowMessageFace("",0,0,2,47)
  ShowMessage("Nabisu offered an injection!")
  ShowMessage("...But nobody was listening.")
  EndEventProcessing()
  0()
 EndIf()
 If(1,11,0,2,0)
  ShowMessageFace("narcubus_fc1",2,0,2,48)
  ShowMessage("\\n<Nabisu>You have to listen to what the nurse says.")
  ShowMessageFace("",0,0,2,49)
  ShowMessage("Nabisu began to lecture!")
  ShowMessage("...But nobody was listening.")
  EndEventProcessing()
  0()
 EndIf()
 If(1,11,0,3,0)
  ShowMessageFace("narcubus_fc1",0,0,2,50)
  ShowMessage("\\n<Nabisu>Nurses are strong!")
  ShowMessageFace("",0,0,2,51)
  ShowMessage("Nabisu is running around!")
  EndEventProcessing()
  0()
 EndIf()
 If(1,11,0,4,0)
  ShowMessageFace("narcubus_fc1",0,0,2,52)
  ShowMessage("\\n<Nabisu>All right, time for an injection. ♪ Please hold out your arm, okay?")
  313(0,1,0,10)
  ShowMessageFace("",0,0,2,53)
  ShowMessage("Nabisu gave Luka an injection!")
  ShowMessage("Luka became confused!")
  EndEventProcessing()
  0()
 EndIf()
 If(1,11,0,5,0)
  ShowMessageFace("narcubus_fc1",0,0,2,54)
  ShowMessage("\\n<Nabisu>Here, take this. Please eat a lot and get strong, okay? ♪")
  ShowMessageFace("",0,0,2,55)
  ShowMessage("Nabisu presents a gift!")
  250(bytes(0x04,0x08,0x6f,0x3a,0x0c,0x52,0x50,0x47,0x3a,0x3a,0x53,0x45,0x08,0x3a,0x0a,0x40,0x6e,0x61,0x6d,0x65,0x49,0x22,0x0a,0x49,0x74,0x65,0x6d,0x31,0x06,0x3a,0x06,0x45,0x54,0x3a,0x0b,0x40,0x70,0x69,0x74,0x63,0x68,0x69,0x69,0x3a,0x0c,0x40,0x76,0x6f,0x6c,0x75,0x6d,0x65,0x69,0x55))
  ChangeInventory_Item(361,0,0,1)
  ShowMessageFace("",0,0,2,56)
  ShowMessage("You obtain a [Rice Ball]!")
  EndEventProcessing()
  0()
 EndIf()
 0()
EndIf()
If(1,100,0,167,0)
 If(1,11,0,1,0)
  ShowMessageFace("lusia_fc1",0,0,2,57)
  ShowMessage("\\n<Lucia>Oh, I need to feed my tentacles.")
  ShowMessageFace("",0,0,2,58)
  ShowMessage("Lucia is feeding meat to her predatory tentacles.")
  EndEventProcessing()
  0()
 EndIf()
 If(1,11,0,2,0)
  ShowMessageFace("lusia_fc1",0,0,2,59)
  ShowMessage("\\n<Lucia>I am Lucia, the secrets of alchemy will... That's no good.")
  ShowMessageFace("",0,0,2,60)
  ShowMessage("Lucia is practicing her catch phrase.")
  EndEventProcessing()
  0()
 EndIf()
 If(1,11,0,3,0)
  ShowMessageFace("lusia_fc1",0,0,2,61)
  ShowMessage("\\n<Lucia>I made a self-destructing tentacle. Of course I took safety precautions, like this...")
  355("interrupt_skill(3306)")
  EndEventProcessing()
  0()
 EndIf()
 If(1,11,0,4,0)
  ShowMessageFace("lusia_fc1",0,0,2,62)
  ShowMessage("\\n<Lucia>These are seeds that have been purified through experiments. So, where shall we plant them?")
  355("interrupt_skill(3299)")
  EndEventProcessing()
  0()
 EndIf()
 If(1,11,0,5,0)
  ShowMessageFace("lusia_fc1",0,0,2,63)
  ShowMessage("\\n<Lucia>If I become a world famous alchemist... This would embarrass me.")
  ShowMessageFace("",0,0,2,64)
  ShowMessage("Lucia is practicing her signature.")
  EndEventProcessing()
  0()
 EndIf()
 0()
EndIf()
If(1,100,0,168,0)
 If(1,11,0,1,0)
  ShowMessageFace("dodome_fc1",2,0,2,65)
  ShowMessage("\\n<Manako>Ow! There is something in my eyes!")
  ShowMessageFace("",0,0,2,66)
  ShowMessage("All of Manako's eyes are rapidly blinking.")
  EndEventProcessing()
  0()
 EndIf()
 If(1,11,0,2,0)
  ShowMessageFace("dodome_fc1",0,0,2,67)
  ShowMessage("\\n<Manako>Leave buying medicine to me!")
  250(bytes(0x04,0x08,0x6f,0x3a,0x0c,0x52,0x50,0x47,0x3a,0x3a,0x53,0x45,0x08,0x3a,0x0a,0x40,0x6e,0x61,0x6d,0x65,0x49,0x22,0x0a,0x49,0x74,0x65,0x6d,0x31,0x06,0x3a,0x06,0x45,0x54,0x3a,0x0b,0x40,0x70,0x69,0x74,0x63,0x68,0x69,0x69,0x3a,0x0c,0x40,0x76,0x6f,0x6c,0x75,0x6d,0x65,0x69,0x55))
  ChangeInventory_Item(14,0,0,3)
  ShowMessageFace("",0,0,2,68)
  ShowMessage("Manako bought a lot of eye drops!")
  ShowMessage("You obtain 3 Eye Drops!")
  EndEventProcessing()
  0()
 EndIf()
 If(1,11,0,3,0)
  ShowMessageFace("dodome_fc1",0,0,2,69)
  ShowMessage("\\n<Manako>Evil Eye Roulette! What will happen?!")
  355("interrupt_skill(2549)")
  EndEventProcessing()
  0()
 EndIf()
 If(1,11,0,4,0)
  ShowMessageFace("dodome_fc1",0,0,2,70)
  ShowMessage("\\n<Manako>Evil Eye Roulette! What will happen?!")
  355("interrupt_skill(2555)")
  EndEventProcessing()
  0()
 EndIf()
 If(1,11,0,5,0)
  ShowMessageFace("dodome_fc1",0,0,2,71)
  ShowMessage("\\n<Manako>Evil Eye Roulette! What will happen?!")
  355("interrupt_skill(2546)")
  EndEventProcessing()
  0()
 EndIf()
 0()
EndIf()
If(1,100,0,169,0)
 If(1,11,0,1,0)
  ShowMessageFace("lizardthief_fc1",0,0,2,72)
  ShowMessage("\\n<Liru>Thieves always have to polish their weapons")
  ShowMessageFace("",0,0,2,73)
  ShowMessage("Liru is polishing a dagger.")
  EndEventProcessing()
  0()
 EndIf()
 If(1,11,0,2,0)
  ShowMessageFace("lizardthief_fc1",0,0,2,74)
  ShowMessage("\\n<Liru>I'll steal from my allies as well! I'll take this!")
  ShowMessageFace("",0,0,2,75)
  ShowMessage("Liru stole Luka's keepsake ring!")
  ShowMessage("...Liru quietly returns it to Luka.")
  EndEventProcessing()
  0()
 EndIf()
 If(1,11,0,3,0)
  ShowMessageFace("lizardthief_fc1",0,0,2,76)
  ShowMessage("\\n<Liru>For thieves, physical strength comes first!")
  ShowMessageFace("",0,0,2,77)
  ShowMessage("Liru is running around!")
  EndEventProcessing()
  0()
 EndIf()
 If(1,11,0,4,0)
  ShowMessageFace("lizardthief_fc1",0,0,2,78)
  ShowMessage("\\n<Liru>I'm a bit hungry.")
  ShowMessageFace("",0,0,2,79)
  ShowMessage("Liru is eating some food she stole.")
  EndEventProcessing()
  0()
 EndIf()
 If(1,11,0,5,0)
  ShowMessageFace("lizardthief_fc1",0,0,2,80)
  ShowMessage("\\n<Liru>Here, I stole it!")
  250(bytes(0x04,0x08,0x6f,0x3a,0x0c,0x52,0x50,0x47,0x3a,0x3a,0x53,0x45,0x08,0x3a,0x0a,0x40,0x6e,0x61,0x6d,0x65,0x49,0x22,0x0a,0x49,0x74,0x65,0x6d,0x31,0x06,0x3a,0x06,0x45,0x54,0x3a,0x0b,0x40,0x70,0x69,0x74,0x63,0x68,0x69,0x69,0x3a,0x0c,0x40,0x76,0x6f,0x6c,0x75,0x6d,0x65,0x69,0x55))
  ChangeInventory_Item(2,0,0,1)
  ShowMessageFace("",0,0,2,81)
  ShowMessage("It seems Liru stole some items from somewhere.")
  ShowMessage("You obtain a [High-Quality Herb]!")
  EndEventProcessing()
  0()
 EndIf()
 0()
EndIf()
If(1,100,0,170,0)
 If(1,11,0,1,0)
  ShowMessageFace("lizardthief_fc2",0,0,2,82)
  ShowMessage("\\n<Len>Now see here, I will not skip training.")
  ShowMessageFace("",0,0,2,83)
  ShowMessage("Len is swinging a sword.")
  EndEventProcessing()
  0()
 EndIf()
 If(1,11,0,2,0)
  ShowMessageFace("lizardthief_fc2",0,0,2,84)
  ShowMessage("\\n<Len>Now see here, I will not skip training.")
  355("interrupt_skill(3291)")
  EndEventProcessing()
  0()
 EndIf()
 If(1,11,0,3,0)
  ShowMessageFace("lizardthief_fc2",0,0,2,85)
  ShowMessage("\\n<Len>Did you forget that I am a bandit?")
  250(bytes(0x04,0x08,0x6f,0x3a,0x0c,0x52,0x50,0x47,0x3a,0x3a,0x53,0x45,0x08,0x3a,0x0a,0x40,0x6e,0x61,0x6d,0x65,0x49,0x22,0x0a,0x49,0x74,0x65,0x6d,0x31,0x06,0x3a,0x06,0x45,0x54,0x3a,0x0b,0x40,0x70,0x69,0x74,0x63,0x68,0x69,0x69,0x3a,0x0c,0x40,0x76,0x6f,0x6c,0x75,0x6d,0x65,0x69,0x55))
  ChangeInventory_Item(2,0,0,1)
  ShowMessageFace("",0,0,2,86)
  ShowMessage("It seems Len stole some items from somewhere.")
  ShowMessage("You obtain [High-Quality Herb]!")
  EndEventProcessing()
  0()
 EndIf()
 If(1,11,0,4,0)
  ShowMessageFace("lizardthief_fc2",0,0,2,87)
  ShowMessage("\\n<Len>This is... I smell trouble.")
  250(bytes(0x04,0x08,0x6f,0x3a,0x0c,0x52,0x50,0x47,0x3a,0x3a,0x53,0x45,0x08,0x3a,0x0a,0x40,0x6e,0x61,0x6d,0x65,0x49,0x22,0x0a,0x49,0x74,0x65,0x6d,0x31,0x06,0x3a,0x06,0x45,0x54,0x3a,0x0b,0x40,0x70,0x69,0x74,0x63,0x68,0x69,0x69,0x3a,0x0c,0x40,0x76,0x6f,0x6c,0x75,0x6d,0x65,0x69,0x55))
  ChangeInventory_Item(444,0,0,1)
  ShowMessageFace("",0,0,2,88)
  ShowMessage("Len discovered a skeletal corpse!")
  ShowMessage("You obtain a [Skull]!")
  EndEventProcessing()
  0()
 EndIf()
 If(1,11,0,5,0)
  ShowMessageFace("lizardthief_fc2",0,0,2,89)
  ShowMessage("\\n<Len>I'm tired, I'll take a short rest.")
  313(0,170,0,11)
  ShowMessageFace("",0,0,2,90)
  ShowMessage("Len fell asleep.")
  EndEventProcessing()
  0()
 EndIf()
 0()
EndIf()
0()
