// EVENT 4331
Name "Shellfish Girl"

If(0,25,1)
 221()
 PictureClear(5)
 PictureClear(6)
 ShowMessageFace("",0,0,2,0)
 ShowMessage("......")
 242(2)
 Wait(120)
 241(bytes(0x04,0x08,0x6f,0x3a,0x0d,0x52,0x50,0x47,0x3a,0x3a,0x42,0x47,0x4d,0x08,0x3a,0x0a,0x40,0x6e,0x61,0x6d,0x65,0x49,0x22,0x0c,0x63,0x61,0x73,0x74,0x6c,0x65,0x36,0x06,0x3a,0x06,0x45,0x54,0x3a,0x0c,0x40,0x76,0x6f,0x6c,0x75,0x6d,0x65,0x69,0x69,0x3a,0x0b,0x40,0x70,0x69,0x74,0x63,0x68,0x69,0x69))
 EndEventProcessing()
 0()
EndIf()
PictureDisplay(5,"80_kai_st02",0,0,0,0,100,100,255,0)
ShowMessageFace("kai_fc1",1,0,2,1)
ShowMessage("\\n<Shelly>You want me to do something like that?\nThis is a proposal isn't it?")
ShowMessageFace("",0,0,2,2)
ShowMessage("\\n<Luka>Th-that's not what I meant...")
ShowMessageFace("kai_fc1",1,0,2,3)
ShowMessage("\\n<Shelly>Of course I will, gladly ♪\nLet's fulfill our marriage agreement...")
ShowMessageFace("",0,0,2,4)
ShowMessage("Saying strange things, Shelly comes up to me.")
ShowMessage("Her huge shell closes over my body!")
ShowMessageFace("",0,0,2,5)
ShowMessage("\\n<Luka>Uwa!")
241(bytes(0x04,0x08,0x6f,0x3a,0x0d,0x52,0x50,0x47,0x3a,0x3a,0x42,0x47,0x4d,0x08,0x3a,0x0a,0x40,0x6e,0x61,0x6d,0x65,0x49,0x22,0x09,0x65,0x72,0x6f,0x31,0x06,0x3a,0x06,0x45,0x54,0x3a,0x0c,0x40,0x76,0x6f,0x6c,0x75,0x6d,0x65,0x69,0x69,0x3a,0x0b,0x40,0x70,0x69,0x74,0x63,0x68,0x69,0x69))
PictureDisplay(5,"ev_kai_h1",0,0,0,0,100,100,255,0)
ShowMessageFace("",0,0,2,6)
ShowMessage("Too weak to resist, she tightens her shell down on my body.")
ShowMessageFace("kai_fc1",1,0,2,7)
ShowMessage("\\n<Shelly>Now, it's time to start making some children. ♪\nMy darling can't resist me anymore, can you?")
ShowMessageFace("",0,0,2,8)
ShowMessage("\\n<Luka>Uu.... Stop...")
ShowMessageFace("",0,0,2,9)
ShowMessage("No matter how much I struggle, I can't move her shell an inch.")
ShowMessage("Having been defeated by the Shellfish Girl, I have no strength left to escape...")
ShowMessageFace("kai_fc1",1,0,2,10)
ShowMessage("\\n<Shelly>I'll stretch my oviduct like this...\nAnd suck in my Darling's penis!")
ShowMessageFace("kai_fc1",1,0,2,11)
ShowMessage("\\n<Shelly>I know it's really tight...\nBut you'll still think it's amazing, I'm sure!")
ShowMessageFace("",0,0,2,12)
ShowMessage("\\n<Luka>Aaah...")
245(bytes(0x04,0x08,0x6f,0x3a,0x0d,0x52,0x50,0x47,0x3a,0x3a,0x42,0x47,0x53,0x08,0x3a,0x0a,0x40,0x6e,0x61,0x6d,0x65,0x49,0x22,0x17,0x6d,0x6f,0x6e,0x5f,0x68,0x73,0x65,0x61,0x6e,0x31,0x36,0x5f,0x6b,0x79,0x75,0x69,0x6e,0x33,0x06,0x3a,0x06,0x45,0x54,0x3a,0x0c,0x40,0x76,0x6f,0x6c,0x75,0x6d,0x65,0x69,0x55,0x3a,0x0b,0x40,0x70,0x69,0x74,0x63,0x68,0x69,0x69))
PictureDisplay(5,"ev_kai_h2",0,0,0,0,100,100,255,0)
ShowMessageFace("",0,0,2,13)
ShowMessage("Shelly grabs my penis with her hand, and slowly sticks it into a tube-shaped organ.")
ShowMessageFace("",0,0,2,14)
ShowMessage("Slowly forced into this narrow tube, I can feel suction cups all over its walls.")
ShowMessageFace("",0,0,2,15)
ShowMessage("Each cup starts to suck on my penis as I'm forced deeper into her.")
ShowMessageFace("kai_fc1",1,0,2,16)
ShowMessage("\\n<Shelly>Hehehe... I'm connected with my Darling now. ♪")
ShowMessageFace("",0,0,2,17)
ShowMessage("\\n<Luka>Auuu...")
ShowMessageFace("",0,0,2,18)
ShowMessage("Now fully stuck inside her narrow organ, the cups increase the force that they're sucking on my penis with.")
ShowMessageFace("",0,0,2,19)
ShowMessage("The bizarre feeling strikes home the fact that I'm mating with a monster...")
ShowMessageFace("",0,0,2,20)
ShowMessage("The immorality of mating with a monster fills me with an abnormal excitement.")
ShowMessageFace("",0,0,2,21)
ShowMessage("But humans aren't allowed to have intercourse with monsters...")
ShowMessage("I must not break that taboo!")
ShowMessageFace("",0,0,2,22)
ShowMessage("\\n<Luka>Stop this!")
ShowMessageFace("",0,0,2,23)
ShowMessage("While my mind resisted, my body was enjoying the pleasure.")
ShowMessageFace("",0,0,2,24)
ShowMessage("Sucked in her tight tube, the innumerable tiny suction cups are filling my body with pleasure.")
ShowMessageFace("",0,0,2,25)
ShowMessage("Forced to mate with her, I'm unable to do anything but endure the rising pleasure.")
ShowMessageFace("kai_fc1",1,0,2,26)
ShowMessage("\\n<Shelly>...Doesn't it feel good, Darling?\nLet out out all of your seed into me...")
ShowMessageFace("",0,0,2,27)
ShowMessage("The entrance to her tube suddenly tightens, as the suction cups around the tip of my penis start to suck harder.")
ShowMessageFace("",0,0,2,28)
ShowMessage("It's as if every inch of her is trying to make me ejaculate...")
ShowMessageFace("",0,0,2,29)
ShowMessage("\\n<Luka>Auuu...")
ShowMessageFace("",0,0,2,30)
ShowMessage("The stimulation is too much for me to bear, as my body twitches pitifully.")
ShowMessageFace("",0,0,2,31)
ShowMessage("Watching my pitiful appearance, Shelly smiles happily.")
ShowMessageFace("kai_fc1",1,0,2,32)
ShowMessage("\\n<Shelly>Aha, so it does feel good. ♪")
ShowMessageFace("kai_fc1",1,0,2,33)
ShowMessage("\\n<Shelly>Are you that happy to be inserted right into my fallopian tubes?\nI'm so happy! ♪")
ShowMessageFace("",0,0,2,34)
ShowMessage("As she excitedly whispers that in my ear, the Shellfish Girl tightens up her tube.")
ShowMessageFace("",0,0,2,35)
ShowMessage("It sucks on my penis.")
ShowMessage("Her fallopian tube is trying to extract my semen.")
ShowMessageFace("",0,0,2,36)
ShowMessage("Unable to endure the forced pleasure, I feel the desire to ejaculate rise up in me.")
ShowMessageFace("",0,0,2,37)
ShowMessage("\\n<Luka>Auu... I'm going to come...\nI can't break the taboo... But it feels so good...")
ShowMessageFace("kai_fc1",1,0,2,38)
ShowMessage("\\n<Shelly>Please let it out, Darling. ♪\nSend all of your seed right into my womb. ♪")
ShowMessageFace("",0,0,2,39)
ShowMessage("The Shellfish Girl tightens her tube, and the suction cups all start to violently suck me from every direction.")
ShowMessageFace("",0,0,2,40)
ShowMessage("Awash in ecstasy at the stimulation, I realize there's no use trying to endure, and give in to the desire to release.")
ShowMessageFace("",0,0,2,41)
ShowMessage("\\n<Luka>Ahhhh!")
RunCommonEvent(104)
PictureDisplay(5,"ev_kai_h3",0,0,0,0,100,100,255,0)
RunCommonEvent(105)
ShowMessageFace("",0,0,2,42)
ShowMessage("I explode in her tight organ, as the suction cups suck out all of my semen, sending it deeper inside of her.")
ShowMessageFace("",0,0,2,43)
ShowMessage("It's as if each cup is giving me tiny kisses, rewarding my penis for its hard work...")
ShowMessageFace("",0,0,2,44)
ShowMessage("\\n<Luka>Faa...")
ShowMessageFace("",0,0,2,45)
ShowMessage("I let out a sigh as I bathe in the afterglow of my orgasm, still being gently sucked inside of her.")
ShowMessageFace("kai_fc1",1,0,2,46)
ShowMessage("\\n<Shelly>Hehehe... You let it out, Darling. ♪\nAll of your healthy semen is inside of me. ♪")
ShowMessageFace("kai_fc1",1,0,2,47)
ShowMessage("\\n<Shelly>With this, you're now officially my husband. ♪")
ShowMessageFace("",0,0,2,48)
ShowMessage("\\n<Luka>Ahh...")
ShowMessageFace("",0,0,2,49)
ShowMessage("Still feeling the after effects from my orgasm, I suddenly feel the Shellfish Girl's hands on my butt.")
PictureDisplay(5,"ev_kai_h4",0,0,0,0,100,100,255,0)
ShowMessageFace("",0,0,2,50)
ShowMessage("Spreading my cheeks, Shelly suddenly starts to lick my anus with her tongue!")
ShowMessageFace("",0,0,2,51)
ShowMessage("\\n<Luka>Ahi! What are you doing!?")
ShowMessageFace("",0,0,2,52)
ShowMessage("The sudden strange stimulation causes my waist to shake.")
ShowMessageFace("kai_fc1",1,0,2,53)
ShowMessage("\\n<Shelly>I want to give my Darling a reward.")
ShowMessageFace("kai_fc1",1,0,2,54)
ShowMessage("\\n<Shelly>I'll make you feel good from back here,\nso you can let out even more of your seed into my tube. ♪")
ShowMessageFace("",0,0,2,55)
ShowMessage("\\n<Luka>Aaaa!")
ShowMessageFace("",0,0,2,56)
ShowMessage("She continues her gentle licking on my anus.")
ShowMessageFace("",0,0,2,57)
ShowMessage("Rather than feeling like a reward, it's more like she's dominating me...")
ShowMessageFace("",0,0,2,58)
ShowMessage("\\n<Luka>Auu... Don't do that...\nDon't lick there... Let me go...")
ShowMessageFace("",0,0,2,59)
ShowMessage("Even though I move my lower back to escape, Shelly doesn't let go.")
ShowMessageFace("",0,0,2,60)
ShowMessage("She keeps her fallopian tube on my penis.")
ShowMessageFace("",0,0,2,61)
ShowMessage("Licked gently from the back, and sucked forcefully from the front, I'm sandwiched in forced pleasure.")
ShowMessageFace("kai_fc1",1,0,2,62)
ShowMessage("\\n<Shelly>Your butt is twitching, Darling.♪")
ShowMessageFace("",0,0,2,63)
ShowMessage("The Shellfish Girl giggles as she continues to lick around my anus.")
ShowMessageFace("",0,0,2,64)
ShowMessage("Attacked by her relentless tongue, I feel my ability to resist fade.")
ShowMessageFace("",0,0,2,65)
ShowMessage("\\n<Luka>Ah, Aaaah...!!")
RunCommonEvent(104)
PictureDisplay(5,"ev_kai_h5",0,0,0,0,100,100,255,0)
RunCommonEvent(105)
ShowMessageFace("",0,0,2,66)
ShowMessage("My waist pushes forward as I come, as if trying to seek even more pleasure as my semen shoots into her reproductive organ.")
ShowMessageFace("",0,0,2,67)
ShowMessage("At the same time, her licking continues.")
ShowMessageFace("",0,0,2,68)
ShowMessage("Helpless, I let out a pathetic scream.")
ShowMessageFace("kai_fc1",1,0,2,69)
ShowMessage("\\n<Shelly>It looks like that felt amazing, Darling. ♪\nHaha... I'm so happy. ♪")
ShowMessageFace("",0,0,2,70)
ShowMessage("The Shellfish Girl laughs at my pathetic appearance.")
ShowMessageFace("",0,0,2,71)
ShowMessage("Sucked from the front, licked from the back...")
ShowMessage("Being tortured by pleasure, I start to go crazy.")
ShowMessageFace("",0,0,2,72)
ShowMessage("\\n<Luka>Sto.... Ahhhhh!")
ShowMessageFace("",0,0,2,73)
ShowMessage("No matter how much I writhe around, the shell doesn't let me escape.")
ShowMessageFace("",0,0,2,74)
ShowMessage("Mercilessly given pleasure, I begin to understand my complete powerlessness.")
ShowMessageFace("kai_fc1",1,0,2,75)
ShowMessage("\\n<Shelly>Please put out more, Darling. ♪")
ShowMessageFace("",0,0,2,76)
ShowMessage("\\n<Luka>Stop it... Hauuu!")
RunCommonEvent(104)
PictureDisplay(5,"ev_kai_h6",0,0,0,0,100,100,255,0)
RunCommonEvent(105)
ShowMessageFace("",0,0,2,77)
ShowMessage("Urged on by her organ tightening around me, I'm forced to come again.")
ShowMessage("Shelly is beginning to rule both my mind and body...")
ShowMessageFace("",0,0,2,78)
ShowMessage("Weakened by the continuous ejaculations, I'm too exhausted to do anything.")
ShowMessageFace("",0,0,2,79)
ShowMessage("But her torture continues, as I sit back and take it.")
ShowMessageFace("",0,0,2,80)
ShowMessage("\\n<Luka>Stop... Please...")
ShowMessageFace("kai_fc1",1,0,2,81)
ShowMessage("\\n<Shelly>Darling... more. ♪\nI want more of your semen. ♪")
ShowMessageFace("",0,0,2,82)
ShowMessage("\\n<Luka>Aiyeee...!")
ShowMessageFace("",0,0,2,83)
ShowMessage("Completely exhausted, she continues to force me to ejaculate.")
ShowMessage("I've lost count now of how many times I've shot my semen inside of her...")
ShowMessageFace("",0,0,2,84)
ShowMessage("Stuck in this rape hell, I finally lose consciousness.")
ShowMessageFace("",0,0,2,85)
ShowMessage("\\n<Luka>Aaa...")
ShowMessageFace("kai_fc1",1,0,2,86)
ShowMessage("\\n<Shelly>Hehehe, we'll be together forever from now on, Darling! ♪")
ShowMessageFace("",0,0,2,87)
ShowMessage("That was the last thing I heard as my consciousness faded.")
ShowMessageFace("",0,0,2,88)
ShowMessage("And after that ejaculation hell")
ShowMessage("My consciousness disappears.")
221()
PictureClear(5)
PictureClear(6)
246(2)
ShowMessageFace("",0,0,2,89)
ShowMessage("Shelly seems to have completely misunderstood me.")
ShowMessage("My curiosity for pleasure may lead me to an unexpected situation...")
ShowMessageFace("",0,0,2,90)
ShowMessage("......")
242(2)
Wait(120)
241(bytes(0x04,0x08,0x6f,0x3a,0x0d,0x52,0x50,0x47,0x3a,0x3a,0x42,0x47,0x4d,0x08,0x3a,0x0a,0x40,0x6e,0x61,0x6d,0x65,0x49,0x22,0x0c,0x63,0x61,0x73,0x74,0x6c,0x65,0x36,0x06,0x3a,0x06,0x45,0x54,0x3a,0x0c,0x40,0x76,0x6f,0x6c,0x75,0x6d,0x65,0x69,0x69,0x3a,0x0b,0x40,0x70,0x69,0x74,0x63,0x68,0x69,0x69))
0()
