// EVENT 4607
Name "Ustrel 2"

If(0,25,1)
 221()
 PictureClear(5)
 PictureClear(6)
 ShowMessageFace("",0,0,2,0)
 ShowMessage("......")
 242(2)
 Wait(120)
 241(bytes(0x04,0x08,0x6f,0x3a,0x0d,0x52,0x50,0x47,0x3a,0x3a,0x42,0x47,0x4d,0x08,0x3a,0x0a,0x40,0x6e,0x61,0x6d,0x65,0x49,0x22,0x0c,0x63,0x61,0x73,0x74,0x6c,0x65,0x36,0x06,0x3a,0x06,0x45,0x54,0x3a,0x0c,0x40,0x76,0x6f,0x6c,0x75,0x6d,0x65,0x69,0x69,0x3a,0x0b,0x40,0x70,0x69,0x74,0x63,0x68,0x69,0x69))
 EndEventProcessing()
 0()
EndIf()
PictureDisplay(5,"80_ustrel_st01",0,0,0,0,100,100,255,0)
ShowMessageFace("ustrel_fc1",0,0,2,1)
ShowMessage("\\n<Lemon>Ufufu, you want me to pleasure you with my tentacles...?")
ShowMessageFace("",0,0,2,2)
ShowMessage("\\n<Luka>P-please...")
PictureDisplay(5,"80_ustrel_st02",0,0,0,0,100,100,255,0)
ShowMessageFace("ustrel_fc1",1,0,2,3)
ShowMessage("\\n<Lemon>If you want it...I don't mind.\nLet's squeeze out your semen then...")
241(bytes(0x04,0x08,0x6f,0x3a,0x0d,0x52,0x50,0x47,0x3a,0x3a,0x42,0x47,0x4d,0x08,0x3a,0x0a,0x40,0x6e,0x61,0x6d,0x65,0x49,0x22,0x09,0x65,0x72,0x6f,0x31,0x06,0x3a,0x06,0x45,0x54,0x3a,0x0c,0x40,0x76,0x6f,0x6c,0x75,0x6d,0x65,0x69,0x69,0x3a,0x0b,0x40,0x70,0x69,0x74,0x63,0x68,0x69,0x69))
PictureDisplay(5,"ev_ustrel_h1",0,0,0,0,100,100,0,0)
PictureMove(5,null,0,0,0,0,100,100,255,0,30,true)
ShowMessageFace("",0,0,2,4)
ShowMessage("Lemon approaches my defenseless body.")
ShowMessage("One of her semen-squeezing mouths attached to her lower body approaches my penis...")
ShowMessageFace("",0,0,2,5)
ShowMessage("\\n<Luka>Aaah...")
PictureDisplay(5,"ev_ustrel_h2",0,0,0,0,100,100,255,0)
ShowMessageFace("ustrel_fc1",1,0,2,6)
ShowMessage("\\n<Lemon>Why do you think this mouth has fangs attached to it?\nPrey who acts violently gets it penis chewed off...")
ShowMessageFace("",0,0,2,7)
ShowMessage("\\n<Luka>Th-that, I don't want that...!")
ShowMessageFace("",0,0,2,8)
ShowMessage("Even though the tentacle can give me pleasure it can also chew my thing off...")
ShowMessage("This is not what we agreed!")
ShowMessageFace("ustrel_fc1",1,0,2,9)
ShowMessage("\\n<Lemon>If you don't want that to happen, stay still and be quiet.\nI'll make you feel good...Ufufu.")
ShowMessageFace("",0,0,2,10)
ShowMessage("If I resist and try to struggle she'll chew my penis off...")
ShowMessage("With no choice I don't resist and just watch her sucking mouth wiggle around my crotch.")
245(bytes(0x04,0x08,0x6f,0x3a,0x0d,0x52,0x50,0x47,0x3a,0x3a,0x42,0x47,0x53,0x08,0x3a,0x0a,0x40,0x6e,0x61,0x6d,0x65,0x49,0x22,0x1e,0x6d,0x6f,0x6e,0x5f,0x68,0x73,0x65,0x61,0x6e,0x31,0x30,0x5f,0x69,0x6e,0x6e,0x65,0x72,0x77,0x6f,0x72,0x6b,0x73,0x5f,0x62,0x32,0x06,0x3a,0x06,0x45,0x54,0x3a,0x0c,0x40,0x76,0x6f,0x6c,0x75,0x6d,0x65,0x69,0x55,0x3a,0x0b,0x40,0x70,0x69,0x74,0x63,0x68,0x69,0x69))
PictureDisplay(5,"ev_ustrel_h3",0,0,0,0,100,100,255,0)
ShowMessageFace("",0,0,2,11)
ShowMessage("Then...")
ShowMessage("Ustrel shoves my penis inside her tentacle-mouth!")
ShowMessageFace("",0,0,2,12)
ShowMessage("\\n<Luka>Ah...! Aaah!")
ShowMessageFace("ustrel_fc1",1,0,2,13)
ShowMessage("\\n<Lemon>Ufufu, I ate your penis...♪\nMy mouth feels very good doesn't it?")
ShowMessageFace("",0,0,2,14)
ShowMessage("\\n<Luka>That feels so good...Auuu!")
ShowMessageFace("",0,0,2,15)
ShowMessage("Her soft elastic meat wraps around my penis.")
ShowMessage("The layer of the inside of her mouth rubs against my glans and fills me with a mysterious pleasure.")
ShowMessageFace("",0,0,2,16)
ShowMessage("On top of that, the mouth shrinks around my penis.")
ShowMessage("The sucking movement it does is unlike a human could do...")
ShowMessageFace("",0,0,2,17)
ShowMessage("\\n<Luka>Ngh... Ah, aaaah...!")
ShowMessageFace("",0,0,2,18)
ShowMessage("Like this, I'll come in no time.")
ShowMessage("I try to resist...")
ShowMessageFace("ustrel_fc1",1,0,2,19)
ShowMessage("\\n<Lemon>...What did I say?\nIf you start resisting I'll chew it off...")
ShowMessageFace("",0,0,2,20)
ShowMessage("\\n<Luka>Urhhg...")
ShowMessageFace("",0,0,2,21)
ShowMessage("I have no choice but to stub resisting and accept this humiliation.")
ShowMessage("If I resist a tragic thing will happen to my manhood...")
ShowMessageFace("ustrel_fc1",1,0,2,22)
ShowMessage("\\n<Lemon>Yes, just like that be quiet and let me suck on you.\nObidient children are well rewarded...")
PictureDisplay(5,"ev_ustrel_h4",0,0,0,0,100,100,255,0)
ShowMessageFace("",0,0,2,23)
ShowMessage("A tongue stretches from another one of her tentacles-mouths.")
ShowMessage("It hangs over my crotch dripping saliva all over...")
ShowMessageFace("",0,0,2,24)
ShowMessage("\\n<Luka>Hyaaa!　Unnngh...")
ShowMessageFace("",0,0,2,25)
ShowMessage("She licks my crotch area and covers me in saliva.")
ShowMessage("Another tongue comes out and starts licking my testicles.")
ShowMessageFace("",0,0,2,26)
ShowMessage("A sweet ache rises from my waist...")
ShowMessage("On top of that my penis is thoroughly sucked by her mouth.")
ShowMessageFace("",0,0,2,27)
ShowMessage("\\n<Luka>Ngh... Ah, aaaah...!")
ShowMessageFace("",0,0,2,28)
ShowMessage("My hips buck up unexpectedly.")
ShowMessage("I push my penis up inside the mouth...")
ShowMessageFace("",0,0,2,29)
ShowMessage("\\n<Luka>Ah...I'm going to come...\nI can't take this...")
ShowMessageFace("ustrel_fc1",1,0,2,30)
ShowMessage("\\n<Lemon>Ufufu, I know...\nDid it feel so good you couldn't sit still?")
ShowMessageFace("ustrel_fc1",1,0,2,31)
ShowMessage("\\n<Lemon>All right, I'll let you have sex with my tentacle...\nPlease let out a lot of semen in my tentacle-mouth.")
PictureDisplay(5,"ev_ustrel_h5",0,0,0,0,100,100,255,0)
ShowMessageFace("",0,0,2,32)
ShowMessage("In the next moment her mouth-tentacles starts sucking on my penis.")
ShowMessage("A sweet sucking stimulation adds to the rubbing of the inside of her walls.")
ShowMessageFace("",0,0,2,33)
ShowMessage("Multiple tongues also start licking all over my crotch.")
ShowMessage("Her saliva covered tongues crawl all over my scrotum as if playing with it...")
ShowMessageFace("",0,0,2,34)
ShowMessage("\\n<Luka>Ah...It's coming out...!\nI'm going to come...!")
ShowMessageFace("ustrel_fc1",1,0,2,35)
ShowMessage("\\n<Lemon>Fufu, are you going to come?\nThen let me suck everything out of you like this.")
ShowMessageFace("",0,0,2,36)
ShowMessage("\\n<Luka>Ngh... Aaaah...!")
ShowMessageFace("",0,0,2,37)
ShowMessage("The sensation of her mouth's sucking increases.")
ShowMessage("It feels like she's trying to uproot my penis. ")
ShowMessageFace("",0,0,2,38)
ShowMessage("The suction coupled with the rubbing of the soft meat on my glans...")
ShowMessage("I push my waist up as I'm being sucked.")
ShowMessageFace("",0,0,2,39)
ShowMessage("\\n<Luka>Coming...Uh...Aah...")
RunCommonEvent(104)
PictureDisplay(5,"ev_ustrel_h6",0,0,0,0,100,100,255,0)
RunCommonEvent(105)
ShowMessageFace("",0,0,2,40)
ShowMessage("The sweet feeling of release washes over me as my penis starts pulsating inside her tentacle.")
ShowMessage("Semen gushes out with every pulse and is swallowed by her mouth...")
ShowMessageFace("",0,0,2,41)
ShowMessage("\\n<Luka>Hnnaaa...")
ShowMessageFace("ustrel_fc1",1,0,2,42)
ShowMessage("\\n<Lemon>Ufufu, you came...\nYour semen is very tasty...")
ShowMessageFace("ustrel_fc1",1,0,2,43)
ShowMessage("\\n<Lemon>More, I'll squeeze out even more.\nI'll suck your penis more.")
ShowMessageFace("",0,0,2,44)
ShowMessage("\\n<Luka>Ahii...! Aaaaaah!!")
ShowMessageFace("",0,0,2,45)
ShowMessage("The sweet feeling of release suddenly turns into a forced milking.")
ShowMessage("Her sucking intensifies even more even before I'm done ejaculating.")
ShowMessageFace("",0,0,2,46)
ShowMessage("It sucks hard on my still pulsating penis...")
ShowMessage("It seems that she can suck out my semen faster than I can shoot it out.")
ShowMessageFace("",0,0,2,47)
ShowMessage("\\n<Luka>Ah...! Hyaaa!!")
ShowMessageFace("",0,0,2,48)
ShowMessage("I yell from the powerful vacuum sensation.")
ShowMessage("Even after my ejaculation is over the intense sucking doesn't stop.")
ShowMessageFace("",0,0,2,49)
ShowMessage("The soft meat inside wraps tightly around my penis pressing on it.")
ShowMessage("All these sensations combined attack my penis.")
ShowMessageFace("ustrel_fc1",1,0,2,50)
ShowMessage("\\n<Lemon>Ufufu, does it feel good?\nI'll suck out all your semen, shoot it all out...")
ShowMessageFace("",0,0,2,51)
ShowMessage("One of her eerie tongues runs all over my balls.")
ShowMessage("She licks all over my weak spots from underneath lifting up my entire ball sack.")
ShowMessageFace("",0,0,2,52)
ShowMessage("\\n<Luka>Ngh... Aaaah...!")
ShowMessageFace("",0,0,2,53)
ShowMessage("Before the sensation of ejaculating fades a new one hits me...")
RunCommonEvent(104)
PictureDisplay(5,"ev_ustrel_h7",0,0,0,0,100,100,255,0)
RunCommonEvent(105)
ShowMessageFace("",0,0,2,54)
ShowMessage("And I come with my whole body shaking.")
ShowMessage("My semen is squeezed out and sucked up by her mouth-tentacle...")
ShowMessageFace("ustrel_fc1",1,0,2,55)
ShowMessage("\\n<Lemon>I'll squeeze out your semen to the last drop.\nFor now just until you can't stan anymore...Ufufu.")
ShowMessageFace("",0,0,2,56)
ShowMessage("\\n<Luka>Th-that's...Stop...")
ShowMessageFace("",0,0,2,57)
ShowMessage("I try to move my limbs and resist...")
ShowMessageFace("ustrel_fc1",1,0,2,58)
ShowMessage("\\n<Lemon>Ara, did you forget?\nIf you resist I'll chew it off.")
ShowMessageFace("ustrel_fc1",1,0,2,59)
ShowMessage("\\n<Lemon>Bleeding to death seems like a more gruesome option.\nWhoever get their semen thoroughly squeezed are happy aren't they?")
ShowMessageFace("",0,0,2,60)
ShowMessage("\\n<Luka>Nnngh...No...")
ShowMessageFace("",0,0,2,61)
ShowMessage("I'm not allowed to resist anymore...")
ShowMessage("I can only accept this merciless semen squeezing.")
ShowMessageFace("",0,0,2,62)
ShowMessage("The most miserable thing about this situation is that my instincts as a man rejoice from this pleasure.")
ShowMessage("In response to the sucking stimulation, my penis starts shooting semen again.")
RunCommonEvent(104)
RunCommonEvent(105)
ShowMessageFace("",0,0,2,63)
ShowMessage("I offer a lot of my semen to her sucking mouth-tentacle.")
ShowMessage("These forced ejaculations make me feel like I'm continuously drained...")
ShowMessageFace("ustrel_fc1",1,0,2,64)
ShowMessage("\\n<Lemon>Ufufu, the inside of my mouth is coated with your semen.\nI sucked out a lot so I'll be done soon.")
ShowMessageFace("",0,0,2,65)
ShowMessage("\\n<Luka>That's...No...")
ShowMessageFace("",0,0,2,66)
ShowMessage("Already, a feeling of weakness spreads through my body.")
ShowMessage("I shot a great amount of semen in such a short time")
ShowMessageFace("",0,0,2,67)
ShowMessage("If I ejaculate any more my life will be in danger...")
ShowMessage("Yet my penis responds truthfully to the pleasure.")
ShowMessageFace("",0,0,2,68)
ShowMessage("The feeling of her undulating meat, the intense sucking...")
ShowMessage("Responding to their stimulation I shoot my semen once more.")
RunCommonEvent(104)
RunCommonEvent(105)
ShowMessageFace("",0,0,2,69)
ShowMessage("\\n<Luka>Ah...aaah...")
ShowMessageFace("",0,0,2,70)
ShowMessage("This sweet and crazy pleasure sucks my semen inside her tentacle-mouth.")
ShowMessage("But my life may be in danger...")
ShowMessageFace("",0,0,2,71)
ShowMessage("The feeling of weakness takes over more of my body and I feel so weak I can't even lift a finger anymore.")
ShowMessage("My vision goes blurry and my consciousness starts to slowly fade...")
ShowMessageFace("",0,0,2,72)
ShowMessage("\\n<Luka>a...a...")
ShowMessageFace("ustrel_fc1",1,0,2,73)
ShowMessage("\\n<Lemon>Arara, it won't be long now.\nEven though a normal man would of been dead after 2 or 3 ejaculations...")
ShowMessageFace("ustrel_fc1",1,0,2,74)
ShowMessage("\\n<Lemon>Ufufu, let me squeeze you like this.\nWouldn't it be just wonderful to be killed by an ally?")
ShowMessageFace("",0,0,2,75)
ShowMessage("\\n<Luka>Ah...Ngh...")
ShowMessageFace("",0,0,2,76)
ShowMessage("On the verge of being sucked dry, the merciless suction continues.")
ShowMessage("In response my penis starts pulsing happily...")
246(2)
RunCommonEvent(104)
RunCommonEvent(105)
ShowMessageFace("",0,0,2,77)
ShowMessage("All my remaining semen flows inside her tentacle.")
ShowMessage("At the same time my consciousness starts to slowly fade...")
221()
PictureClear(5)
ShowMessageFace("ustrel_fc1",1,0,2,78)
ShowMessage("\\n<Lemon>Ufufu, I was joking...I won't suck you dry...\nBecause we're allies...")
ShowMessageFace("ustrel_fc1",1,0,2,79)
ShowMessage("\\n<Lemon>But you're about to faint aren't you?\nThen rest peacefully for a while, ufufu...")
ShowMessageFace("",0,0,2,80)
ShowMessage("\\n<Luka>......")
ShowMessageFace("",0,0,2,81)
ShowMessage("As my consciousness is fading I see Lemon with a satisfied smile on her face.")
ShowMessage("After that, I faint...")
ShowMessageFace("",0,0,2,82)
ShowMessage("......")
242(2)
Wait(120)
241(bytes(0x04,0x08,0x6f,0x3a,0x0d,0x52,0x50,0x47,0x3a,0x3a,0x42,0x47,0x4d,0x08,0x3a,0x0a,0x40,0x6e,0x61,0x6d,0x65,0x49,0x22,0x0c,0x63,0x61,0x73,0x74,0x6c,0x65,0x36,0x06,0x3a,0x06,0x45,0x54,0x3a,0x0c,0x40,0x76,0x6f,0x6c,0x75,0x6d,0x65,0x69,0x69,0x3a,0x0b,0x40,0x70,0x69,0x74,0x63,0x68,0x69,0x69))
0()
