// EVENT 0032
Name "Skill: Digging 1"

ChangeVariable(11,11,0,2,1,100)
If(1,11,0,30,2)
 ShowMessageFace("",0,0,2,1)
 ShowMessage("You didn't find anything.")
 EndEventProcessing()
 0()
EndIf()
If(1,11,0,70,2)
 125(0,1,108)
 ShowMessageFace("",0,0,2,2)
 ShowMessage("\\V[108]G dug up!")
 EndEventProcessing()
 0()
EndIf()
If(1,11,0,80,2)
 ChangeVariable(10,10,0,1,108)
 ChangeVariable(10,10,3,0,15)
 125(0,1,10)
 ShowMessageFace("",0,0,2,3)
 ShowMessage("\\V[10]G dug up!")
 EndEventProcessing()
 0()
EndIf()
If(1,11,0,90,2)
 ShowMessageFace("",0,0,2,4)
 ShowMessage("It looks like there's an item buried here...")
 RunCommonEvent(33)
 EndEventProcessing()
 0()
EndIf()
If(1,11,0,99,2)
 ShowMessageFace("mdg_fc1",2,0,2,5)
 ShowMessage("\\n<Mandragora Girl>......")
 ShowMessageFace("",0,0,2,6)
 ShowMessage("You dug up a Mandragora Girl!")
 If(1,100,0,60,0)
  ShowMessageFace("dog_fc1",4,0,2,7)
  ShowMessage("\\n<Pochi>......")
  0()
 EndIf()
 If(1,100,0,61,0)
  ShowMessageFace("mimizu_fc1",2,0,2,8)
  ShowMessage("\\n<Mimi>Uh oh!")
  0()
 EndIf()
 ShowMessageFace("mdg_fc1",0,0,2,9)
 ShowMessage("\\n<Mandragora Girl>......")
 ShowMessageFace("mdg_fc1",2,0,2,10)
 ShowMessage("\\n<Mandragora Girl>AAAAAAAAAAAAAAAAAH!!!")
 250(bytes(0x04,0x08,0x6f,0x3a,0x0c,0x52,0x50,0x47,0x3a,0x3a,0x53,0x45,0x08,0x3a,0x0a,0x40,0x6e,0x61,0x6d,0x65,0x49,0x22,0x0e,0x50,0x61,0x72,0x61,0x6c,0x79,0x7a,0x65,0x33,0x06,0x3a,0x06,0x45,0x54,0x3a,0x0b,0x40,0x70,0x69,0x74,0x63,0x68,0x69,0x69,0x3a,0x0c,0x40,0x76,0x6f,0x6c,0x75,0x6d,0x65,0x69,0x55))
 313(0,0,0,12)
 ShowMessageFace("",0,0,2,11)
 ShowMessage("The Mandragora Girl screamed!\nThe party has been paralyzed!")
 EndEventProcessing()
 0()
EndIf()
If(1,11,0,100,0)
 ShowMessageFace("",0,0,2,12)
 ShowMessage("You dug up something shiny!")
 ShowMessage("It's a [Small Medal]!")
 ChangeInventory_Item(32,0,0,1)
 250(bytes(0x04,0x08,0x6f,0x3a,0x0c,0x52,0x50,0x47,0x3a,0x3a,0x53,0x45,0x08,0x3a,0x0a,0x40,0x6e,0x61,0x6d,0x65,0x49,0x22,0x0a,0x49,0x74,0x65,0x6d,0x31,0x06,0x3a,0x06,0x45,0x54,0x3a,0x0b,0x40,0x70,0x69,0x74,0x63,0x68,0x69,0x69,0x3a,0x0c,0x40,0x76,0x6f,0x6c,0x75,0x6d,0x65,0x69,0x55))
 ShowMessageFace("",0,0,2,13)
 ShowMessage("You obtain [Small Medal]!")
 EndEventProcessing()
 0()
EndIf()
0()
